<svg width="170" height="60" viewBox="0 0 170 60" fill="none" xmlns="http://www.w3.org/2000/svg">
<path d="M33.2 47.8C42.9755 47.8 50.9 39.8306 50.9 29.9999C50.9 20.1693 42.9755 12.2 33.2 12.2C23.4246 12.2 15.5 20.1693 15.5 29.9999C15.5 39.8306 23.4246 47.8 33.2 47.8Z" fill="white" stroke="#C0C0C0" stroke-width="3" stroke-miterlimit="10"/>
<path d="M25.1 40.5001L46.2 32.1001C45.9 33.6001 45.4 35.0001 44.7 36.3001L29.2 42.6001C27.6 42.1001 26.2 41.4001 25.1 40.5001ZM21 35.0001L45.4 25.2001C45.8 26.3001 46.1 27.4001 46.2 28.5001L22.8 38.0001C22 37.1001 21.5 36.1001 21 35.0001ZM20.2 28.0001L41.2 19.6001C42.2 20.5001 43.1 21.3001 43.6 22.2001L20.2 31.6001C20 30.5001 20 29.2001 20.2 28.0001ZM21.6 23.7001C25.1 18.2001 30.2 15.8001 37.3 17.5001L21.6 23.7001Z" fill="#C0C0C0"/>
<path d="M32.5001 34.5L33.6001 29.7L36.2001 28.7L36.7001 26.4L34.2001 27.4L36.2001 19.8H30.6001L28.0001 29.6L25.7001 30.5L25.1001 32.9L27.4001 32.1L25.7001 38H40.9001L41.7001 34.4L32.5001 34.5Z" fill="white" stroke="#C7C7C7" stroke-miterlimit="10"/>
<path d="M58.1001 41.9999V19.2H60.2001V41.8999L58.1001 41.9999ZM64.2001 22.7C63.6001 22.1 63.6001 21.1999 64.2001 20.5999C64.8001 19.9999 65.7001 19.9999 66.3001 20.5999C66.9001 21.1999 66.9001 22.1 66.3001 22.7C65.7001 23.3 64.9001 23.3 64.2001 22.7ZM64.2001 41.9999V26.3999H66.3001V41.9999H64.2001ZM78.6001 28.3999H74.1001V37.8C74.1001 40.5 75.6001 40.2999 78.6001 40.0999V41.8999C74.2001 42.4999 72.1001 41.4 72.1001 37.8V28.3H68.8001V26.3H72.1001V22.5999L74.2001 21.9999V26.3999H78.7001V28.3999H78.6001ZM93.6001 28.5999C95.0001 30.1999 95.7001 32.2 95.7001 34.3C95.7001 34.5 95.7001 34.9 95.6001 35.3H82.0001C82.4001 38.4 84.9001 40.4999 88.2001 40.4999C90.6001 40.4999 92.3001 39.4 93.2001 37.8L95.0001 38.8999C93.6001 41.0999 91.2001 42.4999 88.1001 42.4999C85.6001 42.4999 83.7001 41.7 82.1001 40.2C80.6001 38.7 79.8001 36.7 79.8001 34.3C79.8001 32 80.6001 29.9999 82.1001 28.4999C83.6001 26.9999 85.5001 26.2 88.0001 26.2C90.2001 26.1 92.1001 26.8999 93.6001 28.5999ZM81.9001 33.3H93.5001C93.3001 31.6 92.7001 30.3999 91.6001 29.4999C90.5001 28.5999 89.3001 28.0999 87.9001 28.0999C84.7001 28.0999 82.4001 30.2 81.9001 33.3ZM99.9001 40.0999C98.4001 38.4999 97.6001 36.6 97.6001 34.2C97.6001 31.8 98.4001 29.9 99.9001 28.3C101.5 26.7 103.5 25.8999 105.8 25.8999C108.8 25.8999 111.5 27.3999 112.8 29.8999L109.4 31.8999C108.8 30.5999 107.5 29.8 105.8 29.8C103.4 29.8 101.6 31.5999 101.6 34.0999C101.6 35.2999 102 36.4 102.8 37.2C103.6 38 104.6 38.3999 105.8 38.3999C107.4 38.3999 108.8 37.6 109.4 36.3L112.9 38.3C111.5 40.8 108.9 42.3 105.9 42.3C103.4 42.5 101.4 41.6999 99.9001 40.0999ZM121.7 42.4999C119.4 42.4999 117.4 41.6999 115.8 40.0999C114.2 38.4999 113.4 36.5 113.4 34.2C113.4 31.9 114.2 29.9999 115.8 28.3999C117.4 26.7999 119.4 25.9999 121.7 25.9999C124 25.9999 126 26.7999 127.6 28.3999C129.2 29.9999 130 31.9 130 34.2C130 36.5 129.2 38.4999 127.6 40.0999C126.1 41.6999 124.1 42.4999 121.7 42.4999ZM121.7 38.5999C122.9 38.5999 123.9 38.1999 124.7 37.3999C125.5 36.5999 125.9 35.6 125.9 34.3C125.9 33 125.5 32 124.7 31.2C123.9 30.4 122.9 29.9999 121.7 29.9999C120.5 29.9999 119.5 30.4 118.7 31.2C117.9 32 117.5 33 117.5 34.3C117.5 35.6 117.9 36.5999 118.7 37.3999C119.6 38.0999 120.6 38.5999 121.7 38.5999ZM132.1 22.0999C132.1 20.7999 133.2 19.5999 134.6 19.5999C136 19.5999 137.1 20.6999 137.1 22.0999C137.1 23.3999 136 24.5999 134.6 24.5999C133.2 24.5999 132.1 23.4999 132.1 22.0999ZM132.6 41.9999V26.3999H136.6V41.9999H132.6ZM152.7 27.7C153.8 28.8 154.4 30.3999 154.4 32.3999V41.9999H150.4V32.9999C150.4 30.8999 149.2 29.8 147.3 29.8C145.2 29.8 143.9 31.0999 143.9 33.5999V41.9999H139.9V26.4999H143.9V28.2C144.9 26.7 146.4 25.9999 148.5 25.9999C150.2 25.9999 151.6 26.6 152.7 27.7Z" fill="#C0C0C0"/>
</svg>
