<svg width="170" height="60" viewBox="0 0 170 60" fill="none" xmlns="http://www.w3.org/2000/svg">
<path d="M57.7999 21.1001H62.9999V24.8001C64.0999 22.3001 65.7999 20.6001 68.7999 20.8001V26.2001H68.4999C65.0999 26.2001 62.8999 28.3001 62.8999 32.6001V39.4001H57.7L57.7999 21.1001ZM71.7999 14.5001H77.2999V19.1001H71.7999V14.5001ZM71.8999 21.1001H77.0999V39.4001H71.8999V21.1001ZM81.5999 21.1001H86.7999V23.7001C88.0999 22.0001 89.7999 20.7001 92.4999 20.7001C96.7999 20.7001 100.8 24.0001 100.8 30.2001C100.8 36.3001 96.7999 39.6001 92.4999 39.6001C89.6999 39.6001 87.9999 38.3001 86.7999 36.9001V48.0001H81.5999V21.1001ZM95.5999 30.3001C95.5999 27.3001 93.5999 25.3001 91.0999 25.3001C88.6999 25.3001 86.7 27.3001 86.7 30.4001C86.7 33.4001 88.6999 35.4001 91.0999 35.4001C93.5999 35.4001 95.5999 33.4001 95.5999 30.3001ZM104.2 21.1001H109.4V23.7001C110.7 22.0001 112.4 20.7001 115.1 20.7001C119.4 20.7001 123.4 24.0001 123.4 30.2001C123.4 36.3001 119.4 39.6001 115.1 39.6001C112.3 39.6001 110.6 38.3001 109.4 36.9001L109.3 48.0001H104.2V21.1001ZM118.2 30.3001C118.2 27.3001 116.2 25.3001 113.7 25.3001C111.3 25.3001 109.3 27.3001 109.3 30.4001C109.3 33.4001 111.3 35.4001 113.7 35.4001C116.2 35.4001 118.2 33.4001 118.2 30.3001ZM126.9 11.1001H132.1V39.9001H126.9V11.1001ZM135.8 30.3001C135.8 25.1001 139.5 20.8001 144.8 20.8001C150.9 20.8001 153.7 25.5001 153.7 30.7001C153.7 31.1001 153.7 31.6001 153.6 32.1001H141C141.5 34.5001 143.1 35.7001 145.5 35.7001C147.2 35.7001 148.5 35.2001 149.9 33.8001L152.9 36.4001C151.2 38.5001 148.7 39.8001 145.4 39.8001C139.9 39.8001 135.8 36.0001 135.8 30.3001ZM148.7 28.9001C148.4 26.6001 147 25.0001 144.8 25.0001C142.7 25.0001 141.3 26.5001 140.8 28.9001H148.7Z" fill="#C0C0C0"/>
<path d="M39.7999 32.8C36.2999 32.3 36.5999 26.9 39.7999 26.5C49.6999 26.5 51.9999 15 44.2999 11C38.7999 7.80002 29.1 14.1 34.2 23.1C35.6 26.4 31.6999 29.4 28.8999 26.7C24.6999 18.6 13.6 21 13.2 30.3C13.2 37.9 24.5999 41.5 29.0999 32.6C32.1999 30.2 35.5999 33.3 34.3999 35.9C30.2999 42.1 35.2999 51.1 43.4999 48.6C52.0999 45.4 50.9999 32.8 39.7999 32.8Z" fill="white"/>
</svg>
