<svg width="170" height="60" viewBox="0 0 170 60" fill="none" xmlns="http://www.w3.org/2000/svg">
<path d="M38.809 24.1001H34.109C32.509 24.4001 31.009 25.0001 30.109 26.1001C27.509 29.0001 26.909 35.2001 30.109 38.0001C30.809 38.6001 31.509 39.1001 32.209 39.4001L27.109 48.5001C26.909 48.8001 27.009 49.0001 27.209 49.1001H29.609C29.909 49.1001 30.109 49.0001 30.109 48.8001L34.709 39.8001H36.309V48.8001C36.309 49.0001 36.509 49.0001 36.609 49.1001H38.609C38.809 49.1001 38.909 49.0001 38.909 48.8001V24.4001C39.009 24.3001 39.009 24.2001 38.809 24.1001ZM36.409 37.7001H34.409C33.409 37.6001 32.509 37.0001 32.009 36.3001C30.109 33.9001 30.309 29.4001 32.309 27.2001C32.809 26.7001 33.409 26.4001 34.109 26.2001H36.409V37.7001Z" fill="white"/>
<path d="M42.6091 49.2001H44.8091C45.0091 49.2001 45.1091 49.1002 45.1091 48.9002V41.1001H48.8091V48.8002C48.8091 49.0002 48.9091 49.1001 49.0091 49.1001H51.1091C51.3091 49.1001 51.4091 49.0002 51.4091 48.8002V32.8002C51.4091 32.6002 51.3091 32.5001 51.2091 32.5001H49.1091C48.9091 32.5001 48.9091 32.6002 48.8091 32.8002V39.1001H45.0091V32.7001C45.0091 32.6001 44.9091 32.5001 44.7091 32.5001H42.5091C42.4091 32.6001 42.3091 32.7002 42.3091 32.8002V49.0001L42.6091 49.2001ZM64.7091 47.0001H64.1091C63.8091 47.0001 63.7091 46.8001 63.7091 46.5001L63.8091 32.6001C63.8091 32.5001 63.7091 32.4002 63.6091 32.4002H56.8091C56.7091 32.4002 56.6091 32.5001 56.6091 32.7001C56.7091 38.6001 56.2091 43.8001 54.2091 47.1001H53.5091C53.4091 47.1001 53.3091 47.2002 53.3091 47.3002V52.2001C53.3091 52.3001 53.3091 52.4002 53.5091 52.4002H55.1091C55.3091 52.4002 55.5091 52.3001 55.5091 52.1001V49.2001H62.6091V52.2001C62.6091 52.4001 62.7091 52.5001 62.8091 52.5001H64.6091C64.8091 52.5001 64.9091 52.4001 64.9091 52.2001V47.5001C65.0091 47.2001 64.9091 47.1001 64.7091 47.0001ZM61.1091 47.0001H56.4091C58.3091 43.6001 59.1091 39.4001 59.0091 34.5001H61.2091L61.1091 47.0001ZM75.2091 46.8002C70.9091 48.0002 69.0091 46.0001 69.1091 41.2001C71.0091 41.4001 73.4091 41.4002 76.1091 41.3002C76.1091 39.1002 75.9091 36.9001 75.4091 35.5001C74.0091 30.9001 69.8091 31.4002 68.1091 33.9002C67.2091 35.3002 66.6091 37.6002 66.4091 39.9002C65.9091 48.8002 70.7091 51.1002 75.8091 48.3002C75.9091 48.1002 75.7091 47.5001 75.5091 47.0001C75.5091 46.8001 75.4091 46.8002 75.2091 46.8002ZM69.6091 36.2001C70.5091 33.4001 72.3091 33.4001 73.0091 36.1001C73.2091 36.9001 73.3091 38.1002 73.3091 39.3002C71.9091 39.2002 70.6091 39.2002 69.2091 39.4002C69.3091 38.0002 69.4091 37.0001 69.6091 36.2001ZM78.7091 32.8002C78.7091 32.5002 78.8091 32.4002 79.0091 32.4002H80.9091C81.2091 32.4002 81.2091 32.5002 81.2091 32.8002V40.0001C81.7091 39.7001 83.3091 35.9001 84.7091 33.1001C84.9091 32.7001 85.2091 32.5002 85.6091 32.4002H87.6091C87.8091 32.4002 87.9091 32.5001 87.7091 32.7001L83.7091 39.9002C85.4091 43.2002 88.3091 48.8001 88.4091 49.1001H85.8091C85.5091 49.1001 85.3091 48.9001 85.2091 48.7001L81.2091 40.5001V48.8002C81.2091 49.0002 81.1091 49.1001 80.9091 49.1001H78.8091C78.7091 49.1001 78.6091 49.0002 78.6091 48.8002L78.7091 32.8002ZM96.9091 35.1001L98.0091 33.5001C98.1091 33.2001 98.0091 33.1001 97.8091 33.0001C96.6091 32.1001 94.0091 31.7001 92.7091 32.6001C92.2091 33.0001 91.7091 33.3002 91.3091 33.8002C89.8091 35.6002 89.3091 38.2001 89.1091 40.7001C89.0091 43.6001 89.3091 46.4002 91.4091 48.4002C92.8091 49.7002 95.5091 50.1002 97.7091 48.8002C98.1091 48.6002 98.4091 48.4001 98.3091 48.1001L98.1091 47.1001C98.1091 46.8001 97.9091 46.9002 97.6091 46.9002C96.3091 47.4002 94.6091 47.4001 93.7091 46.7001C91.8091 45.2001 91.5091 41.7001 91.7091 39.7001C91.9091 38.2001 92.4091 34.9001 94.0091 34.2001C94.6091 33.9001 95.6091 34.4001 96.4091 35.1001C96.5091 35.2001 96.7091 35.3001 96.9091 35.1001Z" fill="#C0C0C0"/>
<path d="M109.809 47.8V28.2C109.809 26.5 110.809 25 112.409 23.6L132.109 8V25.4H142.109V50.5H112.609C111.009 50.3 110.009 49.3 109.809 47.8Z" fill="white"/>
<path d="M132.109 35.5001L113.709 48.1001L137.009 40.4001V25.4001H132.109V35.5001Z" fill="#C0C0C0"/>
<path d="M126.709 27.8002C129.409 24.6002 126.509 21.8002 123.509 25.2002C121.809 27.7002 123.509 30.6002 126.709 27.8002Z" fill="#C0C0C0"/>
</svg>
