<svg width="1380" height="8387" viewBox="0 0 1380 8387" fill="none" xmlns="http://www.w3.org/2000/svg">
<ellipse cx="1174.5" cy="1208.38" rx="3.5" ry="3.72249" fill="#3B4361"/>
<ellipse cx="1174.5" cy="2988.8" rx="3.5" ry="3.72249" fill="#3B4361"/>
<ellipse cx="179.5" cy="360.721" rx="3.5" ry="3.72249" fill="#3B4361"/>
<ellipse cx="509.5" cy="1175.41" rx="4.5" ry="4.78605" fill="#FFCF35"/>
<ellipse cx="1311.5" cy="2686.74" rx="4.5" ry="4.78605" fill="#FFCF35"/>
<ellipse cx="1363.5" cy="4841.53" rx="4.5" ry="4.78605" fill="#FFCF35"/>
<ellipse cx="1148.5" cy="5613.68" rx="4.5" ry="4.78605" fill="#FFCF35"/>
<ellipse cx="840.5" cy="7420.79" rx="4.5" ry="4.78605" fill="#FFCF35"/>
<ellipse cx="553.5" cy="8376.79" rx="4.5" ry="4.78605" fill="#FFCF35"/>
<ellipse cx="809.5" cy="7003.76" rx="4.5" ry="4.78605" fill="#FFCF35"/>
<ellipse opacity="0.1" cx="957.5" cy="7865.25" rx="4.5" ry="4.78605" fill="#FFCF35"/>
<ellipse opacity="0.1" cx="33.5" cy="7433.44" rx="4.5" ry="4.78605" fill="#FFCF35"/>
<ellipse cx="48.5" cy="4659.66" rx="3.5" ry="3.72249" fill="#3B4361"/>
<circle cx="288.5" cy="8013.5" r="3.5" fill="#3B4361"/>
<ellipse cx="126.5" cy="5232.92" rx="3.5" ry="3.72249" fill="#3B4361"/>
<ellipse cx="644.5" cy="6437.72" rx="3.5" ry="3.72249" fill="#3B4361"/>
<ellipse cx="884.5" cy="3869.43" rx="3.5" ry="3.72249" fill="#3B4361"/>
<ellipse cx="179.5" cy="3250.43" rx="3.5" ry="3.72249" fill="#3B4361"/>
<ellipse cx="583" cy="2.83124" rx="2" ry="2.12713" fill="#3B4361"/>
<ellipse cx="638" cy="2817.03" rx="2" ry="2.12713" fill="#3B4361"/>
<ellipse cx="652" cy="4487.89" rx="2" ry="2.12713" fill="#3B4361"/>
<ellipse cx="1129" cy="5166.45" rx="2" ry="2.12713" fill="#3B4361"/>
<ellipse cx="40" cy="6833.06" rx="2" ry="2.12713" fill="#3B4361"/>
<ellipse cx="429" cy="6708.62" rx="2" ry="2.12713" fill="#3B4361"/>
<ellipse cx="1373" cy="7272.31" rx="2" ry="2.12713" fill="#3B4361"/>
<ellipse cx="576" cy="7361.65" rx="2" ry="2.12713" fill="#3B4361"/>
<ellipse cx="68" cy="7858.34" rx="2" ry="2.12713" fill="#3B4361"/>
<ellipse cx="883" cy="8011.13" rx="2" ry="2.12713" fill="#3B4361"/>
<ellipse cx="1177" cy="8384.13" rx="2" ry="2.12713" fill="#3B4361"/>
<ellipse cx="1378" cy="7613.72" rx="2" ry="2.12713" fill="#3B4361"/>
<ellipse cx="1180" cy="6121.53" rx="2" ry="2.12713" fill="#3B4361"/>
<ellipse cx="2" cy="6244.91" rx="2" ry="2.12713" fill="#3B4361"/>
<ellipse cx="103" cy="3928.46" rx="2" ry="2.12713" fill="#3B4361"/>
<ellipse cx="638" cy="3634.91" rx="2" ry="2.12713" fill="#3B4361"/>
<ellipse cx="1048" cy="420.813" rx="2" ry="2.12713" fill="#3B4361"/>
<ellipse cx="1174.5" cy="99.0841" rx="3.5" ry="3.72249" fill="#3B4361"/>
<ellipse cx="1174.5" cy="2170.91" rx="3.5" ry="3.72249" fill="#3B4361"/>
<ellipse cx="1370.5" cy="880.806" rx="3.5" ry="3.72249" fill="#FFCF35"/>
<ellipse cx="509.5" cy="2137.94" rx="4.5" ry="4.78605" fill="#FFCF35"/>
<ellipse cx="179.5" cy="1755.06" rx="3.5" ry="3.72249" fill="#3B4361"/>
<ellipse cx="179.5" cy="2432.55" rx="3.5" ry="3.72249" fill="#3B4361"/>
<ellipse cx="34.5" cy="2988.8" rx="3.5" ry="3.72249" fill="#3B4361"/>
<ellipse cx="27" cy="651.607" rx="2" ry="2.12713" fill="#3B4361"/>
<ellipse cx="1048" cy="1815.15" rx="2" ry="2.12713" fill="#3B4361"/>
</svg>
