<?xml version="1.0" encoding="utf-8"?>
<!-- Generator: Adobe Illustrator 24.1.2, SVG Export Plug-In . SVG Version: 6.00 Build 0)  -->
<svg version="1.1" id="Слой_1" xmlns="http://www.w3.org/2000/svg" xmlns:xlink="http://www.w3.org/1999/xlink" x="0px" y="0px"
	 viewBox="0 0 1240 1077" enable-background="new 0 0 1240 1077" xml:space="preserve">
<radialGradient id="SVGID_1_" cx="386.7344" cy="934.6097" r="1" gradientTransform="matrix(3.297362e-14 538.5 620 -3.796405e-14 -578838 -207718)" gradientUnits="userSpaceOnUse">
	<stop  offset="0" style="stop-color:#232942"/>
	<stop  offset="1" style="stop-color:#171A26;stop-opacity:0"/>
</radialGradient>
<ellipse fill="url(#SVGID_1_)" cx="620" cy="538.5" rx="620" ry="538.5"/>
</svg>
