<svg width="693" height="693" viewBox="0 0 693 693" fill="none" xmlns="http://www.w3.org/2000/svg">
<circle cx="346.5" cy="346.5" r="346" stroke="#5F5F5F"/>
<ellipse cx="131" cy="78.0001" rx="14.7068" ry="14.7068" transform="rotate(-1.15408 131 78.0001)" fill="url(#paint0_linear)"/>
<ellipse cx="131" cy="78.0001" rx="14.7068" ry="14.7068" transform="rotate(-1.15408 131 78.0001)" fill="url(#paint1_linear)"/>
<ellipse cx="612" cy="559" rx="49.0226" ry="49.0226" transform="rotate(-1.15408 612 559)" fill="url(#paint2_linear)"/>
<ellipse cx="612" cy="559" rx="49.0226" ry="49.0226" transform="rotate(-1.15408 612 559)" fill="url(#paint3_linear)"/>
<defs>
<linearGradient id="paint0_linear" x1="131" y1="63.2933" x2="139.732" y2="89.0302" gradientUnits="userSpaceOnUse">
<stop stop-color="#FFCF35"/>
<stop offset="1" stop-color="#FF8A35"/>
</linearGradient>
<linearGradient id="paint1_linear" x1="131" y1="63.2933" x2="139.732" y2="89.0302" gradientUnits="userSpaceOnUse">
<stop stop-color="#FFCF35" stop-opacity="0"/>
<stop offset="1" stop-color="#FF8A35"/>
</linearGradient>
<linearGradient id="paint2_linear" x1="612" y1="509.978" x2="641.107" y2="595.767" gradientUnits="userSpaceOnUse">
<stop stop-color="#FFCF35"/>
<stop offset="1" stop-color="#FF8A35"/>
</linearGradient>
<linearGradient id="paint3_linear" x1="612" y1="509.978" x2="641.107" y2="595.767" gradientUnits="userSpaceOnUse">
<stop stop-color="#FFCF35" stop-opacity="0"/>
<stop offset="1" stop-color="#FF8A35"/>
</linearGradient>
</defs>
</svg>
