<svg display="none" width="0" height="0" version="1.1" xmlns="http://www.w3.org/2000/svg" xmlns:xlink="http://www.w3.org/1999/xlink">

	<symbol id="arrow" viewBox="0 0 10.5 17">
		<path d="M2,0L0,2l6.5,6.5L0,15l2,2l8.5-8.5L2,0z"/>
	</symbol>
	
	<symbol id="cross" viewBox="0 0 18.7 18.7">
		<path fill="none" stroke="#5F5F5F" d="M0.4,18.4l18-18"/>
		<path fill="none" stroke="#5F5F5F" d="M18.4,18.4l-18-18"/>
	</symbol>

	<symbol id="balance-cross" viewBox="0 0 40.6 40.6">
		<path fill="#B6B6B6" d="M20.3,40.6c-4,0-7.9-1.2-11.3-3.4c-3.3-2.2-5.9-5.4-7.5-9.1C0,24.4-0.4,20.3,0.4,16.3
			c0.8-3.9,2.7-7.6,5.6-10.4s6.5-4.8,10.4-5.6c3.9-0.8,8-0.4,11.7,1.2c3.7,1.5,6.9,4.1,9.1,7.5c2.2,3.3,3.4,7.3,3.4,11.3
			c0,5.4-2.1,10.5-6,14.3C30.8,38.5,25.7,40.6,20.3,40.6z M20.3,0.6c-3.9,0-7.7,1.2-10.9,3.3c-3.2,2.2-5.8,5.2-7.2,8.8
			C0.7,16.4,0.3,20.3,1,24.1c0.8,3.8,2.6,7.3,5.4,10.1c2.7,2.7,6.3,4.6,10.1,5.4c3.8,0.8,7.8,0.4,11.4-1.1c3.6-1.5,6.7-4,8.8-7.2
			c2.2-3.2,3.3-7,3.3-10.9c0-5.2-2.1-10.2-5.8-13.9C30.5,2.7,25.5,0.7,20.3,0.6z"/>
		<path fill="none" stroke="#EB5757" d="M13.3,27.3l14-14"/>
		<path fill="none" stroke="#EB5757" d="M27.3,27.3l-14-14"/>
	</symbol>

	<symbol id="balance-check" viewBox="0 0 43.1 40.6">
		<path fill="#B6B6B6" d="M20.3,40.6c-4,0-7.9-1.2-11.3-3.4c-3.3-2.2-5.9-5.4-7.5-9.1C0,24.4-0.4,20.3,0.4,16.3
			c0.8-3.9,2.7-7.6,5.6-10.4s6.5-4.8,10.4-5.6c3.9-0.8,8-0.4,11.7,1.2c3.7,1.5,6.9,4.1,9.1,7.5c2.2,3.3,3.4,7.3,3.4,11.3
			c0,5.4-2.1,10.5-6,14.3C30.8,38.5,25.7,40.6,20.3,40.6z M20.3,0.6c-3.9,0-7.7,1.2-10.9,3.3c-3.2,2.2-5.8,5.2-7.2,8.8
			C0.7,16.4,0.3,20.3,1,24.1c0.8,3.8,2.6,7.3,5.4,10.1c2.7,2.7,6.3,4.6,10.1,5.4c3.8,0.8,7.8,0.4,11.4-1.1c3.6-1.5,6.7-4,8.8-7.2
			c2.2-3.2,3.3-7,3.3-10.9c0-5.2-2.1-10.2-5.8-13.9C30.5,2.7,25.5,0.7,20.3,0.6z"/>
		<path fill="#FFCF35" d="M20.3,25.4c0,0-0.1,0-0.1,0c0,0-0.1,0-0.1-0.1l-9.6-9.6c-0.1-0.1-0.1-0.1-0.1-0.2c0-0.1,0-0.2,0.1-0.2
			c0.1-0.1,0.1-0.1,0.2-0.1c0.1,0,0.2,0,0.2,0.1l9.4,9.4L42.6,2.4c0.1-0.1,0.1-0.1,0.2-0.1c0.1,0,0.2,0,0.2,0.1
			c0.1,0.1,0.1,0.1,0.1,0.2c0,0.1,0,0.2-0.1,0.2L20.6,25.3c0,0-0.1,0.1-0.1,0.1C20.4,25.4,20.4,25.4,20.3,25.4z"/>
	</symbol>

	<symbol id="google-reg" viewBox="0 0 44 44">
		<path fill="#FFFFFF" stroke="#B6B6B6" d="M4,0.5h36c1.9,0,3.5,1.6,3.5,3.5v36c0,1.9-1.6,3.5-3.5,3.5H4c-1.9,0-3.5-1.6-3.5-3.5V4
			C0.5,2.1,2.1,0.5,4,0.5z"/>
		<path fill="#FBBD00" d="M15.1,22c0-1.3,0.4-2.5,1-3.5v-4.4h-4.4C9.9,16.3,9,19.1,9,22s0.9,5.7,2.7,7.9h4.4v-4.4
			C15.4,24.5,15.1,23.3,15.1,22z"/>
		<path fill="#0F9D58" d="M22,28.9l-3,3l3,3c2.9,0,5.7-0.9,7.9-2.7v-4.4h-4.4C24.5,28.6,23.3,28.9,22,28.9z"/>
		<path fill="#31AA52" d="M16.1,25.5l-4.4,4.4c0.3,0.4,0.7,0.9,1.1,1.3c2.5,2.5,5.7,3.8,9.2,3.8v-6.1C19.5,28.9,17.3,27.5,16.1,25.5z"
			/>
		<path fill="#3C79E6" d="M35,22c0-0.8-0.1-1.6-0.2-2.4L34.7,19H22v6.1h6.2c-0.6,1.2-1.5,2.2-2.6,2.8l4.4,4.4c0.4-0.3,0.9-0.7,1.3-1.1
			C33.6,28.7,35,25.5,35,22z"/>
		<path fill="#CF2D48" d="M26.9,17.1l0.5,0.5l4.3-4.3l-0.5-0.5C28.7,10.4,25.5,9,22,9l-3,3l3,3C23.8,15.1,25.6,15.8,26.9,17.1z"/>
		<path fill="#EB4132" d="M22,15.1V9c-3.5,0-6.7,1.4-9.2,3.8c-0.4,0.4-0.8,0.8-1.1,1.3l4.4,4.4C17.3,16.5,19.5,15.1,22,15.1z"/>
	</symbol>
	
	<symbol id="eye" viewBox="0 0 28 28">
		<g>
			<defs>
				<rect id="SVGID_1_" width="28" height="28"/>
			</defs>
			<clipPath id="SVGID_2_">
				<use xlink:href="#SVGID_1_"  overflow="visible"/>
			</clipPath>
			<g clip-path="url(#SVGID_2_)">
				<path fill="none" stroke="#FFFFFF" stroke-linecap="round" stroke-linejoin="round" d="M14,6.1c-4.3,0-8.6,2.5-12.1,7.4
					c-0.1,0.1-0.2,0.3-0.2,0.5c0,0.2,0,0.3,0.1,0.5c2.6,4.1,7,7.4,12.1,7.4c5.1,0,9.5-3.2,12.1-7.4c0.1-0.1,0.1-0.3,0.1-0.5
					s0-0.3-0.1-0.5C23.5,9.4,19,6.1,14,6.1z"/>
				<path fill="none" stroke="#FFFFFF" stroke-miterlimit="10" d="M14,18.4c2.4,0,4.4-2,4.4-4.4s-2-4.4-4.4-4.4s-4.4,2-4.4,4.4
					S11.6,18.4,14,18.4z"/>
			</g>
		</g>
	</symbol>

	<symbol id="eye-cut" viewBox="0 0 25.5 19.2">
		<path fill="none" stroke="#5F5F5F" stroke-linecap="round" stroke-linejoin="round" d="M12.7,2.5c-4.3,0-8.6,2.5-12.1,7.4
			c-0.1,0.1-0.2,0.3-0.2,0.5c0,0.2,0,0.3,0.1,0.5c2.6,4.1,7,7.4,12.1,7.4c5.1,0,9.5-3.2,12.1-7.4c0.1-0.1,0.1-0.3,0.1-0.5
			s0-0.3-0.1-0.5C22.2,5.8,17.8,2.5,12.7,2.5z"/>
		<path fill="none" stroke="#5F5F5F" stroke-miterlimit="10" d="M12.8,14.7c2.4,0,4.4-2,4.4-4.4S15.2,6,12.8,6s-4.4,2-4.4,4.4
			S10.3,14.7,12.8,14.7z"/>
		<path fill="none" stroke="#5F5F5F" d="M3.8,0.3l17.5,18.5"/>
	</symbol>

	<symbol id="fb-icon" viewBox="0 0 14.4 31.3">
		<path fill="#0D101C" d="M13.9,15.6H9.6v15.7H3.1V15.6H0v-5.5h3.1V6.5C3.1,4,4.3,0,9.6,0l4.8,0v5.4H11c-0.6,0-1.4,0.3-1.4,1.5v3.2
			h4.8L13.9,15.6z"/>
	</symbol>

	<symbol id="google-plus" viewBox="0 0 26 26">
		<path fill="#FBBD00" d="M6.1,13c0-1.3,0.4-2.5,1-3.5V5.1H2.7C0.9,7.3,0,10.1,0,13s0.9,5.7,2.7,7.9h4.4v-4.4
			C6.4,15.5,6.1,14.3,6.1,13z"/>
		<path fill="#0F9D58" d="M13,19.9l-3,3l3,3c2.9,0,5.7-0.9,7.9-2.7v-4.4h-4.4C15.5,19.6,14.3,19.9,13,19.9z"/>
		<path fill="#31AA52" d="M7.1,16.5l-4.4,4.4c0.3,0.4,0.7,0.9,1.1,1.3C6.3,24.6,9.5,26,13,26v-6.1C10.5,19.9,8.3,18.5,7.1,16.5z"/>
		<path fill="#3C79E6" d="M26,13c0-0.8-0.1-1.6-0.2-2.4L25.7,10H13v6.1h6.2c-0.6,1.2-1.5,2.2-2.6,2.8l4.4,4.4c0.4-0.3,0.9-0.7,1.3-1.1
			C24.6,19.7,26,16.5,26,13z"/>
		<path fill="#CF2D48" d="M17.9,8.1l0.5,0.5l4.3-4.3l-0.5-0.5C19.7,1.4,16.5,0,13,0l-3,3l3,3C14.8,6.1,16.6,6.8,17.9,8.1z"/>
		<path fill="#EB4132" d="M13,6.1V0C9.5,0,6.3,1.4,3.8,3.8C3.4,4.2,3,4.6,2.7,5.1l4.4,4.4C8.3,7.5,10.5,6.1,13,6.1z"/>
	</symbol>

	<symbol id="icq-icon" viewBox="0 0 35.4 35.4">
		<path fill="#0D101C" d="M27.4,6.9c-1,2.6-9.5,10.3-9.5,10.3S17,5.8,18,3.2c1-2.6,3.9-3.9,6.5-2.8C27.1,1.4,28.4,4.3,27.4,6.9z"/>
		<path fill="#0D101C" d="M17.4,32.2c1-2.6,0.1-14,0.1-14S9.1,25.9,8,28.5c-1,2.6,0.3,5.5,2.8,6.5C13.5,36.1,16.4,34.8,17.4,32.2z"/>
		<path fill="#0D101C" d="M28.5,27.4c-2.6-1-10.3-9.5-10.3-9.5s11.4-0.9,14,0.1c2.6,1,3.9,3.9,2.8,6.5C34,27.1,31.1,28.4,28.5,27.4z"
			/>
		<path fill="#0D101C" d="M3.2,17.4c2.6,1,14,0.1,14,0.1S9.5,9.1,6.9,8c-2.6-1-5.5,0.3-6.5,2.8C-0.7,13.5,0.6,16.4,3.2,17.4z"/>
		<path fill="#696E83" d="M4.8,19.3c2.1-0.9,12.4-1.4,12.4-1.4s-7.3,7.2-9.5,8.1c-2.1,0.9-4.5,0.2-5.3-1.7C1.6,22.5,2.7,20.2,4.8,19.3
			z"/>
		<path fill="#0D101C" d="M27.7,9.3c-2.1,0.9-9.5,8.1-9.5,8.1s10.3-0.4,12.4-1.4c2.1-0.9,3.2-3.2,2.4-5.1C32.2,9.2,29.8,8.4,27.7,9.3z
			"/>
		<path fill="#0D101C" d="M16.1,4.8c0.9,2.1,1.4,12.4,1.4,12.4s-7.2-7.3-8.1-9.5c-0.9-2.1-0.2-4.5,1.7-5.3C12.9,1.6,15.2,2.7,16.1,4.8
			z"/>
		<path fill="#0D101C" d="M26.1,27.7c-0.9-2.1-8.1-9.5-8.1-9.5s0.4,10.3,1.4,12.4c0.9,2.1,3.2,3.2,5.1,2.4
			C26.2,32.2,27,29.8,26.1,27.7z"/>
		<path fill="#FFFFFF" d="M17.5,23.4c3,0,5.4-2.4,5.4-5.4s-2.4-5.4-5.4-5.4c-3,0-5.4,2.4-5.4,5.4S14.5,23.4,17.5,23.4z"/>
	</symbol>

	<symbol id="insta-icon" viewBox="0 0 30 30">
		<g>
			<defs>
				<rect id="SVGID_1_" width="30" height="30"/>
			</defs>
			<clipPath id="SVGID_2_">
				<use xlink:href="#SVGID_1_"  overflow="visible"/>
			</clipPath>
			<g clip-path="url(#SVGID_2_)">
				<path fill="#0D101C" d="M29.9,8.8c-0.1-1.6-0.3-2.7-0.7-3.6c-0.4-1-1-1.9-1.7-2.7c-0.7-0.8-1.7-1.4-2.7-1.7c-1-0.4-2-0.6-3.6-0.7
					C19.6,0,19.1,0,15,0s-4.6,0-6.2,0.1C7.2,0.2,6.1,0.4,5.2,0.8c-1,0.4-1.9,1-2.7,1.7C1.8,3.3,1.2,4.2,0.8,5.2c-0.4,1-0.6,2-0.7,3.6
					C0,10.4,0,10.9,0,15c0,4.1,0,4.6,0.1,6.2c0.1,1.6,0.3,2.7,0.7,3.6c0.4,1,1,1.9,1.7,2.7c0.7,0.8,1.7,1.4,2.7,1.7
					c1,0.4,2,0.6,3.6,0.7C10.4,30,10.9,30,15,30c4.1,0,4.6,0,6.2-0.1c1.6-0.1,2.7-0.3,3.6-0.7c2-0.8,3.6-2.4,4.4-4.4
					c0.4-1,0.6-2,0.7-3.6C30,19.6,30,19.1,30,15C30,10.9,30,10.4,29.9,8.8z M27.2,21.1c-0.1,1.5-0.3,2.3-0.5,2.8
					c-0.5,1.3-1.5,2.3-2.8,2.8c-0.5,0.2-1.3,0.4-2.8,0.5c-1.6,0.1-2.1,0.1-6.1,0.1c-4,0-4.5,0-6.1-0.1c-1.5-0.1-2.3-0.3-2.8-0.5
					c-0.7-0.2-1.2-0.6-1.7-1.1c-0.5-0.5-0.9-1.1-1.1-1.7c-0.2-0.5-0.4-1.3-0.5-2.8C2.7,19.5,2.7,19,2.7,15c0-4,0-4.5,0.1-6.1
					c0.1-1.5,0.3-2.3,0.5-2.8c0.2-0.7,0.6-1.2,1.1-1.7c0.5-0.5,1.1-0.9,1.7-1.1c0.5-0.2,1.3-0.4,2.8-0.5C10.5,2.7,11,2.7,15,2.7h0
					c4,0,4.5,0,6.1,0.1c1.5,0.1,2.3,0.3,2.8,0.5c0.7,0.2,1.2,0.6,1.7,1.1c0.5,0.5,0.9,1.1,1.1,1.7c0.2,0.5,0.5,1.3,0.5,2.8
					c0.1,1.6,0.1,2.1,0.1,6.1C27.3,19,27.3,19.5,27.2,21.1z"/>
				<path fill="#0D101C" d="M15,7.3c-4.3,0-7.7,3.4-7.7,7.7s3.4,7.7,7.7,7.7c4.3,0,7.7-3.4,7.7-7.7S19.3,7.3,15,7.3z M15,20
					c-2.8,0-5-2.2-5-5c0-2.8,2.2-5,5-5c2.8,0,5,2.2,5,5C20,17.8,17.8,20,15,20z"/>
				<path fill="#FFFFFF" d="M24.8,7c0,1-0.8,1.8-1.8,1.8c-1,0-1.8-0.8-1.8-1.8c0-1,0.8-1.8,1.8-1.8C24,5.2,24.8,6,24.8,7z"/>
			</g>
		</g>
	</symbol>

	<symbol id="lavash-icon" viewBox="0 0 24 24">
		<path fill="#0D101C" d="M4.6,15.6c2.3-4.7,1.6-8.9-1.7-12.9C1.6,3.6,0.6,4.6,0,5.8C3,7.6,5,10.7,4.6,15.6z M5.8,15.3
			c1.8-2,3.1-4.4,3.6-7.2c0.5-2.4,0.4-5-0.2-7.8C7,0.4,5,1.2,3.5,2.5c1.3,1.3,2.4,3.5,2.9,6C6.6,10.6,6.4,13,5.8,15.3z M0.5,20.1
			c-0.1,0.4,0,0.6,0.2,0.7C9.4,19.2,17,15.1,23.9,9.1c-2.5-6-7.4-9.3-14-9.1C11.3,9.3,8,16,0.5,20.1z M2,22.2
			c7.1-1.9,13.3-5.2,18.7-9.5c1.1-0.8,2.2-1.7,3.2-2.6c-2.6,2.5-4.2,5-5,7.3c-1.3,1.2-2.8,2.3-4.1,3.1c-2.4,1.3-4.9,1.9-7.4,2
			C5.6,22.7,3.8,22.6,2,22.2z M18.8,18.6v2.5c-5.5,3.4-10.9,3.6-16.2,1.4c4.6,0.8,8.9,0.5,13-1.7C16.7,20.3,17.8,19.6,18.8,18.6z"/>
	</symbol>

	<symbol id="user-logo" viewBox="0 0 280.7 51">
	
		<path fill="#FFFFFF" d="M72.9,16.2c1,0.2,1.8,0.7,2.3,1.3c0.6,0.6,0.8,1.5,0.8,2.5c0,1.3-0.5,2.3-1.5,3.1c-1,0.7-2.4,1.1-4.3,1.1
			h-7.1V8.7h6.6c1.7,0,3,0.3,4,1c1,0.7,1.4,1.7,1.4,2.9c0,0.9-0.2,1.6-0.6,2.2C74.2,15.5,73.6,15.9,72.9,16.2z M64.8,10.1v5.6h4.9
			c1.2,0,2.2-0.2,2.9-0.7c0.7-0.5,1-1.2,1-2.1c0-0.9-0.3-1.6-1-2.1c-0.7-0.5-1.6-0.7-2.9-0.7H64.8z M70.3,22.8c1.4,0,2.4-0.2,3.1-0.7
			c0.7-0.5,1.1-1.2,1.1-2.2c0-1.9-1.4-2.9-4.2-2.9h-5.4v5.8H70.3z M79.5,12.6H81v11.6h-1.6V12.6z M80.3,10c-0.3,0-0.6-0.1-0.8-0.3
			c-0.2-0.2-0.3-0.5-0.3-0.8c0-0.3,0.1-0.6,0.3-0.8c0.2-0.2,0.5-0.3,0.8-0.3s0.6,0.1,0.8,0.3c0.2,0.2,0.3,0.5,0.3,0.7
			c0,0.3-0.1,0.6-0.3,0.8S80.6,10,80.3,10z M91.5,23.4c-0.3,0.3-0.7,0.5-1.1,0.6c-0.4,0.1-0.9,0.2-1.3,0.2c-1.1,0-1.9-0.3-2.5-0.9
			c-0.6-0.6-0.9-1.4-0.9-2.5v-7h-2.1v-1.3h2.1V10h1.6v2.5h3.5v1.3h-3.5v6.9c0,0.7,0.2,1.2,0.5,1.6c0.4,0.4,0.9,0.5,1.5,0.5
			c0.3,0,0.6-0.1,0.9-0.2c0.3-0.1,0.6-0.2,0.8-0.4L91.5,23.4z M98.7,24.2c-1.1,0-2.2-0.2-3.1-0.7c-0.9-0.5-1.6-1.2-2.1-2.1
			c-0.5-0.9-0.8-1.9-0.8-3.1c0-1.1,0.3-2.1,0.8-3c0.5-0.9,1.2-1.6,2.1-2.1c0.9-0.5,1.9-0.7,3.1-0.7c1,0,1.9,0.2,2.7,0.6
			c0.8,0.4,1.4,0.9,1.9,1.7l-1.2,0.8c-0.4-0.6-0.9-1-1.5-1.3c-0.6-0.3-1.2-0.4-1.9-0.4c-0.8,0-1.6,0.2-2.3,0.6
			c-0.7,0.4-1.2,0.9-1.6,1.6c-0.4,0.7-0.6,1.5-0.6,2.4c0,0.9,0.2,1.7,0.6,2.4c0.4,0.7,0.9,1.2,1.6,1.6c0.7,0.4,1.4,0.5,2.3,0.5
			c0.7,0,1.3-0.1,1.9-0.4c0.6-0.3,1.1-0.7,1.5-1.3l1.2,0.8c-0.5,0.7-1.1,1.3-1.9,1.7C100.6,24.1,99.7,24.2,98.7,24.2z M110.8,24.2
			c-1.1,0-2.1-0.2-3-0.7c-0.9-0.5-1.6-1.2-2.1-2.1c-0.5-0.9-0.8-1.9-0.8-3c0-1.1,0.3-2.1,0.8-3c0.5-0.9,1.2-1.6,2.1-2.1
			c0.9-0.5,1.9-0.7,3-0.7c1.1,0,2.1,0.2,3,0.7c0.9,0.5,1.6,1.2,2.1,2.1c0.5,0.9,0.8,1.9,0.8,3c0,1.1-0.3,2.1-0.8,3
			c-0.5,0.9-1.2,1.6-2.1,2.1C113,24,112,24.2,110.8,24.2z M110.8,22.9c0.8,0,1.6-0.2,2.2-0.5c0.7-0.4,1.2-0.9,1.5-1.6
			c0.4-0.7,0.5-1.5,0.5-2.4c0-0.9-0.2-1.7-0.5-2.4c-0.4-0.7-0.9-1.2-1.5-1.6c-0.6-0.4-1.4-0.6-2.2-0.6s-1.6,0.2-2.2,0.6
			c-0.6,0.4-1.2,0.9-1.5,1.6c-0.4,0.7-0.5,1.5-0.5,2.4c0,0.9,0.2,1.7,0.5,2.4c0.4,0.7,0.9,1.2,1.5,1.6C109.3,22.7,110,22.9,110.8,22.9
			z M119.9,12.6h1.6v11.6h-1.6V12.6z M120.7,10c-0.3,0-0.6-0.1-0.8-0.3s-0.3-0.5-0.3-0.8c0-0.3,0.1-0.6,0.3-0.8
			c0.2-0.2,0.5-0.3,0.8-0.3s0.6,0.1,0.8,0.3c0.2,0.2,0.3,0.5,0.3,0.7c0,0.3-0.1,0.6-0.3,0.8C121.3,9.9,121,10,120.7,10z M131.7,12.5
			c1.5,0,2.6,0.4,3.5,1.3c0.9,0.8,1.3,2.1,1.3,3.7v6.7h-1.6v-6.6c0-1.2-0.3-2.1-0.9-2.7c-0.6-0.6-1.5-0.9-2.6-0.9
			c-1.2,0-2.2,0.4-3,1.1c-0.7,0.7-1.1,1.8-1.1,3.1v6.1h-1.6V12.6h1.5v2.1c0.4-0.7,1-1.2,1.8-1.6C129.8,12.7,130.7,12.5,131.7,12.5z
			M146.8,8.7h1.6v15.4h-1.6V8.7z M159,12.5c1.5,0,2.6,0.4,3.5,1.3c0.9,0.8,1.3,2.1,1.3,3.7v6.7h-1.6v-6.6c0-1.2-0.3-2.1-0.9-2.7
			c-0.6-0.6-1.5-0.9-2.6-0.9c-1.2,0-2.2,0.4-3,1.1c-0.7,0.7-1.1,1.8-1.1,3.1v6.1h-1.6V12.6h1.5v2.1c0.4-0.7,1-1.2,1.8-1.6
			C157.1,12.7,158,12.5,159,12.5z M177.5,12.6l-5.1,11.6h-1.6l-5.1-11.6h1.6l4.3,9.9l4.4-9.9H177.5z M189.4,18.8h-9.7
			c0.1,1.2,0.5,2.2,1.4,2.9c0.8,0.7,1.9,1.1,3.2,1.1c0.7,0,1.4-0.1,2-0.4c0.6-0.3,1.1-0.6,1.6-1.1l0.9,1c-0.5,0.6-1.2,1.1-1.9,1.4
			c-0.8,0.3-1.6,0.5-2.5,0.5c-1.2,0-2.2-0.2-3.2-0.7c-0.9-0.5-1.6-1.2-2.1-2.1c-0.5-0.9-0.8-1.9-0.8-3c0-1.1,0.2-2.1,0.7-3
			c0.5-0.9,1.2-1.6,2-2.1c0.9-0.5,1.8-0.7,2.9-0.7s2,0.2,2.9,0.7c0.9,0.5,1.5,1.2,2,2.1c0.5,0.9,0.7,1.9,0.7,3L189.4,18.8z
			M183.9,13.8c-1.1,0-2.1,0.4-2.8,1.1c-0.7,0.7-1.2,1.6-1.3,2.8h8.2c-0.1-1.1-0.5-2.1-1.3-2.8C185.9,14.2,185,13.8,183.9,13.8z
			M195.8,24.2c-0.9,0-1.8-0.1-2.7-0.4c-0.9-0.3-1.5-0.6-2-1l0.7-1.2c0.5,0.4,1.1,0.7,1.8,0.9c0.7,0.2,1.5,0.4,2.3,0.4
			c1.1,0,1.8-0.2,2.3-0.5c0.5-0.3,0.8-0.8,0.8-1.4c0-0.4-0.1-0.8-0.4-1c-0.3-0.2-0.6-0.4-1.1-0.5c-0.4-0.1-1-0.3-1.7-0.4
			c-0.9-0.2-1.7-0.4-2.3-0.5c-0.6-0.2-1.1-0.5-1.5-0.9c-0.4-0.4-0.6-1-0.6-1.8c0-1,0.4-1.8,1.2-2.4c0.8-0.6,1.9-0.9,3.4-0.9
			c0.7,0,1.5,0.1,2.2,0.3c0.7,0.2,1.4,0.4,1.8,0.8l-0.7,1.3c-1-0.7-2.1-1-3.4-1c-1,0-1.8,0.2-2.3,0.5c-0.5,0.4-0.7,0.8-0.7,1.4
			c0,0.4,0.1,0.8,0.4,1.1c0.3,0.3,0.7,0.5,1.1,0.6c0.4,0.1,1,0.2,1.8,0.4c0.9,0.2,1.7,0.4,2.2,0.5c0.6,0.2,1,0.5,1.4,0.9
			c0.4,0.4,0.6,1,0.6,1.8c0,1-0.4,1.8-1.3,2.4C198.4,24,197.2,24.2,195.8,24.2z M209.5,23.4c-0.3,0.3-0.7,0.5-1.1,0.6
			c-0.4,0.1-0.9,0.2-1.3,0.2c-1.1,0-1.9-0.3-2.5-0.9c-0.6-0.6-0.9-1.4-0.9-2.5v-7h-2.1v-1.3h2.1V10h1.6v2.5h3.5v1.3h-3.5v6.9
			c0,0.7,0.2,1.2,0.5,1.6c0.4,0.4,0.9,0.5,1.5,0.5c0.3,0,0.6-0.1,0.9-0.2c0.3-0.1,0.6-0.2,0.8-0.4L209.5,23.4z M226.8,12.5
			c1.5,0,2.6,0.4,3.4,1.3c0.8,0.8,1.3,2.1,1.3,3.7v6.7h-1.6v-6.6c0-1.2-0.3-2.1-0.9-2.7c-0.6-0.6-1.4-0.9-2.4-0.9
			c-1.2,0-2.1,0.4-2.8,1.1c-0.7,0.7-1,1.8-1,3.1v6.1h-1.6v-6.6c0-1.2-0.3-2.1-0.9-2.7c-0.6-0.6-1.4-0.9-2.5-0.9
			c-1.2,0-2.1,0.4-2.8,1.1c-0.7,0.7-1,1.8-1,3.1v6.1h-1.6V12.6h1.5v2.1c0.4-0.7,1-1.2,1.7-1.6c0.7-0.4,1.6-0.6,2.5-0.6
			c1,0,1.8,0.2,2.5,0.6c0.7,0.4,1.3,1,1.6,1.8c0.4-0.8,1-1.4,1.8-1.8C224.8,12.7,225.8,12.5,226.8,12.5z M245.8,18.8h-9.7
			c0.1,1.2,0.6,2.2,1.4,2.9c0.8,0.7,1.9,1.1,3.2,1.1c0.7,0,1.4-0.1,2-0.4c0.6-0.3,1.1-0.6,1.6-1.1l0.9,1c-0.5,0.6-1.2,1.1-1.9,1.4
			c-0.8,0.3-1.6,0.5-2.5,0.5c-1.2,0-2.2-0.2-3.2-0.7c-0.9-0.5-1.6-1.2-2.1-2.1c-0.5-0.9-0.8-1.9-0.8-3c0-1.1,0.2-2.1,0.7-3
			c0.5-0.9,1.2-1.6,2-2.1c0.9-0.5,1.8-0.7,2.9-0.7c1.1,0,2,0.2,2.9,0.7c0.9,0.5,1.5,1.2,2,2.1c0.5,0.9,0.7,1.9,0.7,3L245.8,18.8z
			M240.2,13.8c-1.1,0-2.1,0.4-2.8,1.1c-0.7,0.7-1.2,1.6-1.3,2.8h8.2c-0.1-1.1-0.5-2.1-1.3-2.8C242.3,14.2,241.3,13.8,240.2,13.8z
			M254.9,12.5c1.5,0,2.6,0.4,3.5,1.3c0.9,0.8,1.3,2.1,1.3,3.7v6.7h-1.6v-6.6c0-1.2-0.3-2.1-0.9-2.7c-0.6-0.6-1.5-0.9-2.6-0.9
			c-1.2,0-2.2,0.4-3,1.1c-0.7,0.7-1.1,1.8-1.1,3.1v6.1H249V12.6h1.5v2.1c0.4-0.7,1-1.2,1.8-1.6C253,12.7,253.9,12.5,254.9,12.5z
			M270,23.4c-0.3,0.3-0.7,0.5-1.1,0.6c-0.4,0.1-0.9,0.2-1.3,0.2c-1.1,0-1.9-0.3-2.5-0.9c-0.6-0.6-0.9-1.4-0.9-2.5v-7h-2.1v-1.3h2.1
			V10h1.6v2.5h3.5v1.3h-3.5v6.9c0,0.7,0.2,1.2,0.5,1.6c0.4,0.4,0.9,0.5,1.5,0.5c0.3,0,0.6-0.1,0.9-0.2c0.3-0.1,0.6-0.2,0.8-0.4
			L270,23.4z M275.9,24.2c-0.9,0-1.8-0.1-2.7-0.4c-0.9-0.3-1.5-0.6-2-1l0.7-1.2c0.5,0.4,1.1,0.7,1.8,0.9c0.7,0.2,1.5,0.4,2.3,0.4
			c1.1,0,1.8-0.2,2.3-0.5c0.5-0.3,0.8-0.8,0.8-1.4c0-0.4-0.1-0.8-0.4-1c-0.3-0.2-0.6-0.4-1.1-0.5c-0.4-0.1-1-0.3-1.7-0.4
			c-0.9-0.2-1.7-0.4-2.3-0.5c-0.6-0.2-1.1-0.5-1.5-0.9c-0.4-0.4-0.6-1-0.6-1.8c0-1,0.4-1.8,1.2-2.4c0.8-0.6,1.9-0.9,3.4-0.9
			c0.7,0,1.5,0.1,2.2,0.3c0.7,0.2,1.4,0.4,1.8,0.8l-0.7,1.3c-1-0.7-2.1-1-3.4-1c-1,0-1.8,0.2-2.3,0.5c-0.5,0.4-0.7,0.8-0.7,1.4
			c0,0.4,0.1,0.8,0.4,1.1c0.3,0.3,0.7,0.5,1.1,0.6c0.4,0.1,1,0.2,1.8,0.4c0.9,0.2,1.7,0.4,2.2,0.5c0.6,0.2,1,0.5,1.4,0.9
			c0.4,0.4,0.6,1,0.6,1.8c0,1-0.4,1.8-1.3,2.4C278.6,24,277.4,24.2,275.9,24.2z"/>
		<path fill="#B6B6B6" d="M68.5,35.5v7.4h-1v-6.5H64l-0.1,1.8c-0.1,1.5-0.3,2.7-0.5,3.5c-0.3,0.8-0.8,1.2-1.5,1.2
			c-0.2,0-0.4,0-0.7-0.1l0.1-0.9c0.2,0,0.3,0.1,0.4,0.1c0.4,0,0.7-0.2,0.9-0.5c0.2-0.4,0.3-0.8,0.4-1.3c0.1-0.5,0.1-1.2,0.2-2.1
			l0.1-2.6H68.5z M71.4,35.5h1v5.9l4.9-5.9h0.9v7.4h-1V37l-4.9,5.9h-0.9V35.5z M86.6,35.5v7.4h-1v-3.1c-0.8,0.4-1.7,0.6-2.5,0.6
			c-0.9,0-1.6-0.2-2.1-0.6c-0.5-0.4-0.7-1-0.7-1.8v-2.4h1v2.4c0,0.6,0.2,1,0.5,1.3c0.4,0.3,0.8,0.4,1.5,0.4c0.7,0,1.5-0.2,2.3-0.5
			v-3.5H86.6z M89.4,35.5h1v3.3H95v-3.3h1v7.4h-1v-3.2h-4.6v3.2h-1V35.5z M101.9,38.1c0.9,0,1.6,0.2,2.1,0.6c0.5,0.4,0.7,1,0.7,1.7
			c0,0.8-0.3,1.4-0.8,1.8c-0.5,0.4-1.3,0.6-2.2,0.6l-2.9,0v-7.4h1V38L101.9,38.1z M106,35.5h1v7.4h-1V35.5z M101.7,42.1
			c0.7,0,1.2-0.1,1.5-0.4c0.4-0.3,0.5-0.7,0.5-1.3c0-0.5-0.2-0.9-0.5-1.2c-0.3-0.3-0.9-0.4-1.6-0.4l-1.9,0v3.3L101.7,42.1z
			M109.8,35.5h1v5.9l4.9-5.9h0.9v7.4h-1V37l-4.9,5.9h-0.9V35.5z M113.2,34.4c-0.6,0-1.1-0.2-1.5-0.5c-0.4-0.3-0.6-0.8-0.6-1.3h0.7
			c0,0.4,0.1,0.7,0.4,0.9c0.3,0.2,0.6,0.3,1,0.3s0.7-0.1,1-0.3c0.3-0.2,0.4-0.5,0.4-0.9h0.7c0,0.6-0.2,1-0.6,1.3
			C114.3,34.2,113.8,34.4,113.2,34.4z M125.8,39.6h-1.7v3.3h-1v-7.4h1v3.2h1.7l2.6-3.2h1.1l-2.9,3.6l3.1,3.8h-1.2L125.8,39.6z
			M133.7,35.4c1,0,1.7,0.2,2.2,0.7c0.5,0.5,0.8,1.2,0.8,2.1v4.6h-1v-1.1c-0.2,0.4-0.6,0.7-1,0.9c-0.4,0.2-0.9,0.3-1.5,0.3
			c-0.8,0-1.5-0.2-2-0.6c-0.5-0.4-0.7-0.9-0.7-1.6c0-0.6,0.2-1.1,0.7-1.5c0.5-0.4,1.2-0.6,2.2-0.6h2.3v-0.4c0-0.6-0.2-1.1-0.5-1.4
			c-0.4-0.3-0.9-0.5-1.6-0.5c-0.5,0-0.9,0.1-1.3,0.2c-0.4,0.1-0.8,0.4-1.1,0.6l-0.4-0.7c0.4-0.3,0.8-0.6,1.3-0.7
			C132.5,35.5,133.1,35.4,133.7,35.4z M133.3,42.1c0.6,0,1-0.1,1.4-0.4c0.4-0.3,0.7-0.6,0.9-1.1v-1.2h-2.3c-1.3,0-1.9,0.4-1.9,1.3
			c0,0.4,0.2,0.8,0.5,1C132.3,42,132.7,42.1,133.3,42.1z M142.9,35.6c0.7,0,1.3,0.2,1.8,0.5c0.5,0.3,1,0.7,1.3,1.3
			c0.3,0.5,0.4,1.2,0.4,1.9c0,0.7-0.2,1.4-0.5,1.9c-0.3,0.6-0.7,1-1.3,1.3c-0.6,0.3-1.2,0.5-1.9,0.5c-1.2,0-2.2-0.4-2.8-1.3
			c-0.7-0.9-1-2-1-3.6c0-1.6,0.3-2.8,0.9-3.6c0.6-0.8,1.5-1.4,2.8-1.7l3.3-0.8l0.2,0.9l-3.1,0.7c-1.1,0.2-1.8,0.6-2.3,1.2
			c-0.5,0.6-0.8,1.5-0.8,2.6c0.3-0.6,0.7-1,1.2-1.3C141.5,35.8,142.2,35.6,142.9,35.6z M142.7,42.1c0.5,0,1-0.1,1.4-0.3
			c0.4-0.2,0.7-0.6,1-1c0.2-0.4,0.3-0.9,0.3-1.5c0-0.5-0.1-1-0.3-1.4c-0.2-0.4-0.5-0.7-1-1c-0.4-0.2-0.9-0.3-1.4-0.3s-1,0.1-1.4,0.3
			c-0.4,0.2-0.7,0.5-1,1c-0.2,0.4-0.3,0.9-0.3,1.4c0,0.5,0.1,1,0.3,1.5c0.2,0.4,0.6,0.8,1,1C141.7,42,142.2,42.1,142.7,42.1z
			M148.5,35.5h1v5.9l4.9-5.9h0.9v7.4h-1V37l-4.9,5.9h-0.9V35.5z M158.1,35.5h1v3.3h4.6v-3.3h1v7.4h-1v-3.2h-4.6v3.2h-1V35.5z
			M174,39.5h-6.2c0.1,0.8,0.4,1.4,0.9,1.9c0.5,0.5,1.2,0.7,2,0.7c0.5,0,0.9-0.1,1.3-0.2c0.4-0.2,0.7-0.4,1-0.7l0.6,0.6
			c-0.3,0.4-0.7,0.7-1.2,0.9c-0.5,0.2-1,0.3-1.6,0.3c-0.8,0-1.4-0.2-2-0.5c-0.6-0.3-1-0.8-1.4-1.3c-0.3-0.6-0.5-1.2-0.5-1.9
			c0-0.7,0.2-1.4,0.5-1.9c0.3-0.6,0.7-1,1.3-1.3c0.6-0.3,1.2-0.5,1.8-0.5c0.7,0,1.3,0.2,1.8,0.5c0.5,0.3,1,0.8,1.3,1.3
			c0.3,0.6,0.5,1.2,0.5,1.9L174,39.5z M170.5,36.3c-0.7,0-1.3,0.2-1.8,0.7c-0.5,0.4-0.7,1-0.8,1.8h5.2c-0.1-0.7-0.3-1.3-0.8-1.8
			C171.8,36.5,171.2,36.3,170.5,36.3z M181.1,36.3h-2.8v6.5h-1v-6.5h-2.8v-0.9h6.6V36.3z"/>
		<path fill="none" stroke="#FFFFFF" d="M40,25.8c-0.2,7.5-6.5,13.5-14.2,13.4c-7.7-0.2-13.8-6.4-13.7-13.9
			c0.2-7.5,6.5-13.5,14.2-13.4C34,12.1,40.1,18.3,40,25.8z"/>
		<path fill="none" stroke="#45464B" d="M51.5,25.5c0,13.8-11.4,25-25.5,25S0.5,39.3,0.5,25.5s11.4-25,25.5-25S51.5,11.7,51.5,25.5z"
			/>
		<ellipse transform="matrix(0.9998 -2.009714e-02 2.009714e-02 0.9998 -0.3515 0.3804)" fill="#FFCF35" cx="18.8" cy="17.7" rx="9.4" ry="9.2"/>
		<linearGradient id="SVGID_1_" gradientUnits="userSpaceOnUse" x1="8.2708" y1="52.4412" x2="13.6617" y2="36.2608" gradientTransform="matrix(0.9998 1.942030e-02 2.088530e-02 -0.9998 10.2649 72.7805)">
			<stop  offset="0" style="stop-color:#FFCF35;stop-opacity:0"/>
			<stop  offset="1" style="stop-color:#FF8A35"/>
		</linearGradient>
		<path fill="url(#SVGID_1_)" d="M18.9,8.5c5.2,0.1,9.3,4.3,9.2,9.4s-4.4,9.1-9.6,9c-5.2-0.1-9.3-4.3-9.2-9.4
			C9.5,12.4,13.8,8.4,18.9,8.5z"/>
		<ellipse fill="#FFCF35" cx="10" cy="6.3" rx="2.9" ry="2.8"/>
		<linearGradient id="SVGID_2_" gradientUnits="userSpaceOnUse" x1="9.1877" y1="48.2178" x2="10.8448" y2="43.2404" gradientTransform="matrix(1 0 0 -1 0 52)">
			<stop  offset="0" style="stop-color:#FFCF35;stop-opacity:0"/>
			<stop  offset="1" style="stop-color:#FF8A35"/>
		</linearGradient>
		<ellipse fill="url(#SVGID_2_)" cx="10" cy="6.3" rx="2.9" ry="2.8"/>

	</symbol>

	<symbol id="logo" viewBox="0 0 198 34.8">
		<path fill="#FFFFFF" d="M46.9,17.6c0.7,0.2,1.3,0.5,1.7,1c0.4,0.5,0.6,1.1,0.6,1.8c0,1-0.4,1.7-1.1,2.2c-0.7,0.5-1.7,0.8-3.1,0.8
			h-5.2V12.2h4.8c1.2,0,2.2,0.3,2.9,0.8c0.7,0.5,1,1.2,1,2.1c0,0.6-0.2,1.1-0.5,1.6C47.9,17.1,47.4,17.4,46.9,17.6z M41,13.2v4.1h3.6
			c0.9,0,1.6-0.2,2.1-0.5c0.5-0.4,0.7-0.9,0.7-1.5c0-0.7-0.2-1.2-0.7-1.5c-0.5-0.4-1.2-0.5-2.1-0.5H41z M45,22.4c1,0,1.8-0.2,2.3-0.5
			c0.5-0.3,0.8-0.9,0.8-1.6c0-1.4-1-2.1-3-2.1h-4v4.2H45z M51.7,15h1.1v8.4h-1.1V15z M52.3,13.2c-0.2,0-0.4-0.1-0.6-0.2
			s-0.2-0.4-0.2-0.6c0-0.2,0.1-0.4,0.2-0.6s0.4-0.2,0.6-0.2c0.2,0,0.4,0.1,0.6,0.2c0.2,0.1,0.2,0.3,0.2,0.5c0,0.2-0.1,0.4-0.2,0.6
			S52.5,13.2,52.3,13.2z M60.4,22.9c-0.2,0.2-0.5,0.3-0.8,0.4c-0.3,0.1-0.6,0.1-1,0.1c-0.8,0-1.4-0.2-1.8-0.6c-0.4-0.4-0.6-1-0.6-1.8
			V16h-1.5v-1h1.5v-1.8h1.1V15h2.6v1h-2.6v5c0,0.5,0.1,0.9,0.4,1.2c0.3,0.3,0.6,0.4,1.1,0.4c0.2,0,0.5,0,0.7-0.1
			c0.2-0.1,0.4-0.2,0.6-0.3L60.4,22.9z M65.7,23.5c-0.8,0-1.6-0.2-2.2-0.5c-0.7-0.4-1.2-0.9-1.5-1.5c-0.4-0.7-0.6-1.4-0.6-2.2
			s0.2-1.6,0.6-2.2s0.9-1.2,1.5-1.5c0.7-0.4,1.4-0.5,2.2-0.5c0.7,0,1.4,0.1,1.9,0.4c0.6,0.3,1,0.7,1.4,1.2l-0.8,0.6
			c-0.3-0.4-0.6-0.7-1.1-0.9c-0.4-0.2-0.9-0.3-1.4-0.3c-0.6,0-1.2,0.1-1.6,0.4c-0.5,0.3-0.9,0.7-1.1,1.2c-0.3,0.5-0.4,1.1-0.4,1.7
			c0,0.7,0.1,1.2,0.4,1.7c0.3,0.5,0.7,0.9,1.1,1.2c0.5,0.3,1,0.4,1.6,0.4c0.5,0,1-0.1,1.4-0.3s0.8-0.5,1.1-0.9l0.8,0.6
			c-0.3,0.5-0.8,1-1.4,1.2C67,23.4,66.4,23.5,65.7,23.5z M74.5,23.5c-0.8,0-1.5-0.2-2.2-0.5c-0.7-0.4-1.2-0.9-1.5-1.5
			s-0.6-1.4-0.6-2.2s0.2-1.6,0.6-2.2s0.9-1.2,1.5-1.5c0.7-0.4,1.4-0.5,2.2-0.5s1.5,0.2,2.2,0.5c0.7,0.4,1.2,0.9,1.5,1.5
			c0.4,0.7,0.6,1.4,0.6,2.2s-0.2,1.6-0.6,2.2c-0.4,0.7-0.9,1.2-1.5,1.5C76,23.3,75.3,23.5,74.5,23.5z M74.5,22.5
			c0.6,0,1.1-0.1,1.6-0.4c0.5-0.3,0.9-0.7,1.1-1.2s0.4-1.1,0.4-1.7s-0.1-1.2-0.4-1.7c-0.3-0.5-0.6-0.9-1.1-1.2c-0.5-0.3-1-0.4-1.6-0.4
			c-0.6,0-1.1,0.1-1.6,0.4c-0.5,0.3-0.8,0.7-1.1,1.2c-0.3,0.5-0.4,1.1-0.4,1.7s0.1,1.2,0.4,1.7c0.3,0.5,0.7,0.9,1.1,1.2
			C73.4,22.4,73.9,22.5,74.5,22.5z M81.1,15h1.1v8.4h-1.1V15z M81.7,13.2c-0.2,0-0.4-0.1-0.6-0.2s-0.2-0.4-0.2-0.6
			c0-0.2,0.1-0.4,0.2-0.6s0.4-0.2,0.6-0.2c0.2,0,0.4,0.1,0.6,0.2c0.2,0.1,0.2,0.3,0.2,0.5c0,0.2-0.1,0.4-0.2,0.6
			C82.1,13.1,81.9,13.2,81.7,13.2z M89.7,14.9c1.1,0,1.9,0.3,2.5,0.9c0.6,0.6,0.9,1.5,0.9,2.7v4.9H92v-4.8c0-0.9-0.2-1.5-0.7-2
			S90.3,16,89.5,16c-0.9,0-1.6,0.3-2.2,0.8c-0.5,0.5-0.8,1.3-0.8,2.2v4.4h-1.1V15h1.1v1.6c0.3-0.5,0.7-0.9,1.3-1.2
			C88.3,15.1,88.9,14.9,89.7,14.9z M100.6,12.2h1.2v11.2h-1.2V12.2z M109.5,14.9c1.1,0,1.9,0.3,2.5,0.9c0.6,0.6,0.9,1.5,0.9,2.7v4.9
			h-1.1v-4.8c0-0.9-0.2-1.5-0.7-2c-0.4-0.5-1.1-0.7-1.9-0.7c-0.9,0-1.6,0.3-2.2,0.8c-0.5,0.5-0.8,1.3-0.8,2.2v4.4h-1.1V15h1.1v1.6
			c0.3-0.5,0.7-0.9,1.3-1.2C108.2,15.1,108.8,14.9,109.5,14.9z M123,15l-3.7,8.4h-1.2l-3.7-8.4h1.2l3.2,7.2l3.2-7.2H123z M131.7,19.6
			h-7c0.1,0.9,0.4,1.6,1,2.1c0.6,0.5,1.4,0.8,2.3,0.8c0.5,0,1-0.1,1.4-0.3c0.4-0.2,0.8-0.5,1.1-0.8l0.6,0.7c-0.4,0.4-0.8,0.8-1.4,1
			c-0.6,0.2-1.2,0.4-1.8,0.4c-0.9,0-1.6-0.2-2.3-0.5c-0.7-0.4-1.2-0.9-1.6-1.5c-0.4-0.7-0.6-1.4-0.6-2.2s0.2-1.6,0.5-2.2
			c0.4-0.7,0.9-1.2,1.5-1.5c0.6-0.4,1.3-0.5,2.1-0.5s1.5,0.2,2.1,0.5c0.6,0.4,1.1,0.9,1.5,1.5c0.4,0.6,0.5,1.4,0.5,2.2L131.7,19.6z
			M127.6,15.9c-0.8,0-1.5,0.3-2,0.8c-0.5,0.5-0.9,1.2-0.9,2h6c-0.1-0.8-0.4-1.5-0.9-2C129.1,16.2,128.4,15.9,127.6,15.9z M136.2,23.5
			c-0.7,0-1.3-0.1-2-0.3c-0.6-0.2-1.1-0.5-1.5-0.8l0.5-0.9c0.4,0.3,0.8,0.5,1.3,0.7c0.5,0.2,1.1,0.3,1.7,0.3c0.8,0,1.3-0.1,1.7-0.4
			c0.4-0.2,0.6-0.6,0.6-1c0-0.3-0.1-0.5-0.3-0.7c-0.2-0.2-0.5-0.3-0.8-0.4c-0.3-0.1-0.7-0.2-1.2-0.3c-0.7-0.1-1.2-0.3-1.6-0.4
			c-0.4-0.1-0.8-0.4-1.1-0.7c-0.3-0.3-0.4-0.8-0.4-1.3c0-0.7,0.3-1.3,0.9-1.7c0.6-0.4,1.4-0.7,2.4-0.7c0.5,0,1.1,0.1,1.6,0.2
			c0.5,0.1,1,0.3,1.3,0.6l-0.5,0.9c-0.7-0.5-1.5-0.7-2.5-0.7c-0.7,0-1.3,0.1-1.6,0.4c-0.4,0.3-0.5,0.6-0.5,1c0,0.3,0.1,0.6,0.3,0.8
			c0.2,0.2,0.5,0.3,0.8,0.4c0.3,0.1,0.7,0.2,1.3,0.3c0.7,0.1,1.2,0.3,1.6,0.4c0.4,0.1,0.8,0.3,1,0.7c0.3,0.3,0.4,0.7,0.4,1.3
			c0,0.7-0.3,1.3-0.9,1.8C138.2,23.3,137.3,23.5,136.2,23.5z M146.3,22.9c-0.2,0.2-0.5,0.3-0.8,0.4c-0.3,0.1-0.6,0.1-1,0.1
			c-0.8,0-1.4-0.2-1.8-0.6c-0.4-0.4-0.6-1-0.6-1.8V16h-1.5v-1h1.5v-1.8h1.1V15h2.6v1h-2.6v5c0,0.5,0.1,0.9,0.4,1.2
			c0.3,0.3,0.6,0.4,1.1,0.4c0.2,0,0.5,0,0.7-0.1c0.2-0.1,0.4-0.2,0.6-0.3L146.3,22.9z M158.8,14.9c1.1,0,1.9,0.3,2.5,0.9
			c0.6,0.6,0.9,1.5,0.9,2.7v4.9h-1.1v-4.8c0-0.9-0.2-1.5-0.6-2c-0.4-0.5-1-0.7-1.8-0.7c-0.9,0-1.6,0.3-2.1,0.8
			c-0.5,0.5-0.8,1.3-0.8,2.2v4.4h-1.1v-4.8c0-0.9-0.2-1.5-0.6-2c-0.4-0.5-1-0.7-1.8-0.7c-0.9,0-1.6,0.3-2.1,0.8
			c-0.5,0.5-0.8,1.3-0.8,2.2v4.4h-1.1V15h1.1v1.5c0.3-0.5,0.7-0.9,1.2-1.2c0.5-0.3,1.1-0.4,1.8-0.4c0.7,0,1.3,0.1,1.8,0.4
			c0.5,0.3,0.9,0.7,1.2,1.3c0.3-0.6,0.8-1,1.3-1.3C157.4,15.1,158.1,14.9,158.8,14.9z M172.6,19.6h-7c0.1,0.9,0.4,1.6,1,2.1
			c0.6,0.5,1.4,0.8,2.3,0.8c0.5,0,1-0.1,1.4-0.3c0.4-0.2,0.8-0.5,1.1-0.8l0.6,0.7c-0.4,0.4-0.8,0.8-1.4,1c-0.6,0.2-1.2,0.4-1.8,0.4
			c-0.9,0-1.6-0.2-2.3-0.5c-0.7-0.4-1.2-0.9-1.6-1.5c-0.4-0.7-0.6-1.4-0.6-2.2s0.2-1.6,0.5-2.2c0.4-0.7,0.9-1.2,1.5-1.5
			c0.6-0.4,1.3-0.5,2.1-0.5c0.8,0,1.5,0.2,2.1,0.5c0.6,0.4,1.1,0.9,1.5,1.5c0.4,0.6,0.5,1.4,0.5,2.2L172.6,19.6z M168.6,15.9
			c-0.8,0-1.5,0.3-2,0.8c-0.5,0.5-0.9,1.2-0.9,2h6c-0.1-0.8-0.4-1.5-0.9-2C170.1,16.2,169.4,15.9,168.6,15.9z M179.3,14.9
			c1.1,0,1.9,0.3,2.5,0.9c0.6,0.6,0.9,1.5,0.9,2.7v4.9h-1.1v-4.8c0-0.9-0.2-1.5-0.7-2c-0.4-0.5-1.1-0.7-1.9-0.7
			c-0.9,0-1.6,0.3-2.2,0.8c-0.5,0.5-0.8,1.3-0.8,2.2v4.4H175V15h1.1v1.6c0.3-0.5,0.7-0.9,1.3-1.2C177.9,15.1,178.5,14.9,179.3,14.9z
			M190.2,22.9c-0.2,0.2-0.5,0.3-0.8,0.4c-0.3,0.1-0.6,0.1-1,0.1c-0.8,0-1.4-0.2-1.8-0.6c-0.4-0.4-0.6-1-0.6-1.8V16h-1.5v-1h1.5v-1.8
			h1.1V15h2.6v1h-2.6v5c0,0.5,0.1,0.9,0.4,1.2c0.3,0.3,0.6,0.4,1.1,0.4c0.2,0,0.5,0,0.7-0.1c0.2-0.1,0.4-0.2,0.6-0.3L190.2,22.9z
			M194.6,23.5c-0.7,0-1.3-0.1-2-0.3c-0.6-0.2-1.1-0.5-1.5-0.8l0.5-0.9c0.4,0.3,0.8,0.5,1.3,0.7c0.5,0.2,1.1,0.3,1.7,0.3
			c0.8,0,1.3-0.1,1.7-0.4c0.4-0.2,0.6-0.6,0.6-1c0-0.3-0.1-0.5-0.3-0.7c-0.2-0.2-0.5-0.3-0.8-0.4c-0.3-0.1-0.7-0.2-1.2-0.3
			c-0.7-0.1-1.2-0.3-1.6-0.4c-0.4-0.1-0.8-0.4-1.1-0.7c-0.3-0.3-0.4-0.8-0.4-1.3c0-0.7,0.3-1.3,0.9-1.7c0.6-0.4,1.4-0.7,2.4-0.7
			c0.5,0,1.1,0.1,1.6,0.2c0.5,0.1,1,0.3,1.3,0.6l-0.5,0.9c-0.7-0.5-1.5-0.7-2.5-0.7c-0.7,0-1.3,0.1-1.6,0.4c-0.4,0.3-0.5,0.6-0.5,1
			c0,0.3,0.1,0.6,0.3,0.8c0.2,0.2,0.5,0.3,0.8,0.4c0.3,0.1,0.7,0.2,1.3,0.3c0.7,0.1,1.2,0.3,1.6,0.4c0.4,0.1,0.8,0.3,1,0.7
			c0.3,0.3,0.4,0.7,0.4,1.3c0,0.7-0.3,1.3-0.9,1.8C196.5,23.3,195.7,23.5,194.6,23.5z"/>
		<path fill="none" stroke="#FFFFFF" d="M27,17.1c0.1,4.9-4,9.1-9.1,9.3c-5.1,0.2-9.2-3.7-9.3-8.6c-0.1-4.9,4-9.1,9.1-9.3
			C22.8,8.3,26.9,12.2,27,17.1z"/>
		<path fill="none" stroke="#45464B" d="M35.1,16.8C35.2,26.1,27.5,34,18,34.3C8.4,34.6,0.6,27.3,0.5,18S8,0.8,17.6,0.5
			C27.1,0.2,35,7.5,35.1,16.8z"/>
		<ellipse transform="matrix(0.9174 -0.3979 0.3979 0.9174 -3.7464 6.0694)" fill="#FFCF35" cx="12.8" cy="12.1" rx="6.4" ry="5.9"/>
		<linearGradient id="SVGID_1_" gradientUnits="userSpaceOnUse" x1="-2.3732" y1="25.3527" x2="1.0468" y2="14.7528" gradientTransform="matrix(0.9989 -5.528330e-02 -7.725730e-03 -1 15.9247 39.0939)">
			<stop  offset="0" style="stop-color:#FFCF35;stop-opacity:0"/>
			<stop  offset="1" style="stop-color:#FF8A35"/>
		</linearGradient>
		<path fill="url(#SVGID_1_)" d="M12.7,6.1c3.5-0.2,6.3,2.3,6.3,5.6s-2.8,6.2-6.3,6.3c-3.5,0.2-6.3-2.3-6.3-5.6
			C6.4,9.1,9.2,6.3,12.7,6.1z"/>
		<ellipse transform="matrix(0.9166 -0.3998 0.3998 0.9166 -1.0257 2.868)" fill="#FFCF35" cx="6.4" cy="3.9" rx="2.1" ry="2"/>
		<linearGradient id="SVGID_2_" gradientUnits="userSpaceOnUse" x1="-2.7695" y1="26.5812" x2="-1.6288" y2="23.0471" gradientTransform="matrix(0.9989 -5.528340e-02 -7.725710e-03 -1 9.5368 30.9257)">
			<stop  offset="0" style="stop-color:#FFCF35;stop-opacity:0"/>
			<stop  offset="1" style="stop-color:#FF8A35"/>
		</linearGradient>
		<path fill="url(#SVGID_2_)" d="M6.3,1.9c1.2-0.1,2.1,0.8,2.1,1.9S7.5,5.8,6.4,5.9C5.2,6,4.3,5.1,4.3,4C4.3,2.9,5.2,2,6.3,1.9z"/>
	</symbol>

	<symbol id="skype-icon" viewBox="0 0 27.3 27.3">
		<path fill="#0D101C" d="M26.1,15.6c0.1-0.6,0.2-1.3,0.2-2c0-7-5.7-12.7-12.7-12.7c-0.7,0-1.3,0.1-2,0.2C10.5,0.4,9.1,0,7.7,0
			C3.4,0,0,3.4,0,7.6c0,1.5,0.4,2.8,1.1,4C1,12.3,1,13,1,13.6c0,7,5.7,12.7,12.7,12.7c0.7,0,1.3-0.1,2-0.2c1.2,0.7,2.5,1.1,4,1.1
			c4.2,0,7.7-3.4,7.7-7.7C27.3,18.2,26.9,16.8,26.1,15.6z M19.7,19.4c-0.5,0.8-1.3,1.4-2.4,1.8c-1,0.4-2.2,0.6-3.7,0.6
			c-1.7,0-3.1-0.3-4.2-0.9c-0.8-0.4-1.4-1-1.9-1.7c-0.5-0.7-0.7-1.4-0.7-2.1c0-0.4,0.2-0.8,0.5-1c0.3-0.3,0.7-0.4,1.1-0.4
			c0.4,0,0.7,0.1,1,0.3c0.3,0.2,0.5,0.5,0.7,1c0.2,0.5,0.4,0.9,0.7,1.2c0.2,0.3,0.6,0.6,1,0.8c0.4,0.2,1,0.3,1.8,0.3
			c1,0,1.8-0.2,2.5-0.7c0.6-0.4,0.9-1,0.9-1.6c0-0.5-0.2-0.9-0.5-1.2c-0.3-0.3-0.8-0.6-1.3-0.7c-0.5-0.2-1.3-0.4-2.2-0.5
			c-1.2-0.3-2.2-0.6-3.1-0.9c-0.8-0.4-1.5-0.8-2-1.5c-0.5-0.6-0.7-1.4-0.7-2.3c0-0.9,0.3-1.7,0.8-2.3C8.4,6.9,9.2,6.3,10.2,6
			c1-0.4,2.1-0.5,3.4-0.5c1,0,2,0.1,2.7,0.4c0.8,0.2,1.4,0.6,1.9,1c0.5,0.4,0.9,0.8,1.1,1.3c0.2,0.4,0.4,0.9,0.4,1.3
			c0,0.4-0.2,0.8-0.5,1.1c-0.3,0.3-0.7,0.5-1.1,0.5c-0.4,0-0.7-0.1-0.9-0.3c-0.2-0.2-0.4-0.5-0.7-0.9c-0.3-0.6-0.7-1-1.1-1.4
			C15,8,14.3,7.8,13.4,7.8c-0.9,0-1.6,0.2-2.1,0.5c-0.5,0.4-0.8,0.8-0.8,1.3c0,0.3,0.1,0.6,0.3,0.8c0.2,0.2,0.4,0.4,0.7,0.6
			c0.3,0.2,0.6,0.3,1,0.4c0.3,0.1,0.9,0.2,1.6,0.4c1,0.2,1.8,0.4,2.6,0.7c0.8,0.3,1.4,0.6,2,0.9c0.6,0.4,1,0.8,1.3,1.4
			c0.3,0.6,0.5,1.2,0.5,2C20.5,17.8,20.2,18.6,19.7,19.4z"/>
	</symbol>

	<symbol id="tg-icon" viewBox="0 0 30.4 25.5">
		<path fill="#0D101C" d="M1.4,10.5l27-10.4c1.3-0.5,2.3,0.3,1.9,2.2l0,0L25.8,24c-0.3,1.5-1.3,1.9-2.5,1.2l-7-5.2l-3.4,3.3
			c-0.4,0.4-0.7,0.7-1.4,0.7l0.5-7.1l13-11.7c0.6-0.5-0.1-0.8-0.9-0.3L8,14.9l-6.9-2.2C-0.4,12.3-0.4,11.3,1.4,10.5z"/>
	</symbol>

	<symbol id="twitter-icon" viewBox="0 0 30.4 24.6">
		<path fill="#0D101C" d="M30.4,2.9c-1.1,0.5-2.3,0.8-3.6,1c1.3-0.8,2.3-2,2.7-3.4c-1.2,0.7-2.5,1.2-4,1.5c-1.1-1.2-2.8-2-4.6-2
			c-3.5,0-6.2,2.8-6.2,6.2c0,0.5,0,1,0.1,1.4C9.8,7.4,5.2,4.9,2.1,1.1c-0.5,0.9-0.9,2-0.9,3.1c0,2.1,1.1,4.1,2.8,5.2
			c-1,0-2-0.3-2.8-0.8c0,0,0,0,0,0.1c0,3,2.2,5.5,5,6.1C5.7,15,5.2,15,4.6,15c-0.4,0-0.8,0-1.2-0.1c0.8,2.5,3.1,4.3,5.8,4.3
			c-2.1,1.7-4.8,2.6-7.7,2.6c-0.5,0-1,0-1.5-0.1c2.8,1.8,6,2.8,9.6,2.8c11.5,0,17.8-9.5,17.8-17.7c0-0.3,0-0.5,0-0.8
			C28.5,5.3,29.6,4.2,30.4,2.9z"/>
	</symbol>

	<symbol id="vk-icon" viewBox="0 0 31.5 18">
		<path fill-rule="evenodd" clip-rule="evenodd" fill="#0D101C" d="M15.4,17.9h1.9c0,0,0.6-0.1,0.9-0.4c0.3-0.3,0.3-0.8,0.3-0.8
			s0-2.5,1.1-2.9c1.2-0.4,2.6,2.4,4.2,3.5c1.2,0.8,2.1,0.6,2.1,0.6l4.2-0.1c0,0,2.2-0.1,1.2-1.9c-0.1-0.1-0.6-1.3-3.1-3.6
			c-2.6-2.4-2.3-2.1,0.9-6.3c1.9-2.6,2.7-4.2,2.5-4.8c-0.2-0.6-1.7-0.5-1.7-0.5l-4.7,0c0,0-0.4,0-0.6,0.1C24.2,1.1,24,1.5,24,1.5
			s-0.7,2-1.8,3.7c-2.1,3.6-3,3.8-3.3,3.5c-0.8-0.5-0.6-2.1-0.6-3.2c0-3.5,0.5-4.9-1-5.3C16.9,0.1,16.5,0,15.2,0c-1.7,0-3.1,0-3.9,0.4
			c-0.5,0.3-1,0.9-0.7,0.9c0.3,0,1,0.2,1.4,0.7c0.5,0.7,0.5,2.1,0.5,2.1s0.3,4.1-0.7,4.6c-0.6,0.3-1.5-0.4-3.4-3.6
			c-1-1.7-1.7-3.5-1.7-3.5S6.5,1.3,6.3,1.1C6,0.9,5.5,0.8,5.5,0.8L1,0.8c0,0-0.7,0-0.9,0.3c-0.2,0.3,0,0.8,0,0.8s3.5,8.2,7.5,12.4
			C11.3,18.2,15.4,17.9,15.4,17.9z"/>
	</symbol>

	<symbol id="yt-icon" viewBox="0 0 27.5 19.4">
		<path fill="#0D101C" d="M21.8,0H5.7C2.6,0,0,2.6,0,5.7v8c0,3.2,2.6,5.7,5.7,5.7h16.1c3.2,0,5.7-2.6,5.7-5.7v-8
			C27.5,2.6,24.9,0,21.8,0z M17.9,10.1l-7.5,3.6c-0.2,0.1-0.4-0.1-0.4-0.3V6c0-0.2,0.2-0.4,0.4-0.3l7.5,3.8
			C18.1,9.7,18.1,10,17.9,10.1z"/>
	</symbol>

	<symbol id="logo-sign" viewBox="0 0 57 57">
		<circle fill="none" stroke="#FFFFFF" cx="28.5" cy="28.5" r="15"/>
		<circle fill="none" stroke="#45464B" cx="28.5" cy="28.5" r="28"/>
		<circle fill="#FFCF35" cx="20.5" cy="19.7" r="10.1"/>
		<linearGradient id="SVGID_1_" gradientUnits="userSpaceOnUse" x1="17.4841" y1="48.1765" x2="23.4523" y2="30.5859" gradientTransform="matrix(1 0 0 -1 0 58.8666)">
			<stop  offset="0" style="stop-color:#FFCF35;stop-opacity:0"/>
			<stop  offset="1" style="stop-color:#FF8A35"/>
		</linearGradient>
		<circle fill="url(#SVGID_1_)" cx="20.5" cy="19.7" r="10.1"/>
		<circle fill="#FFCF35" cx="10.5" cy="6.3" r="3.4"/>
		<linearGradient id="SVGID_2_" gradientUnits="userSpaceOnUse" x1="9.4713" y1="55.5693" x2="11.4607" y2="49.7058" gradientTransform="matrix(1 0 0 -1 0 58.8666)">
			<stop  offset="0" style="stop-color:#FFCF35;stop-opacity:0"/>
			<stop  offset="1" style="stop-color:#FF8A35"/>
		</linearGradient>
		<circle fill="url(#SVGID_2_)" cx="10.5" cy="6.3" r="3.4"/>
	</symbol>

	<symbol id="arrow-down" viewBox="0 0 7.4 14.5">
		<path fill="#EB5757" d="M4,14.4c-0.2,0.2-0.5,0.2-0.7,0l-3.2-3.2C0,11,0,10.7,0.1,10.5c0.2-0.2,0.5-0.2,0.7,0l2.8,2.8l2.8-2.8
			c0.2-0.2,0.5-0.2,0.7,0c0.2,0.2,0.2,0.5,0,0.7L4,14.4z M4.2,0v14h-1V0L4.2,0z"/>
	</symbol>

	<symbol id="time-icon" viewBox="0 0 20 20">
		<path fill="#FFFFFF" d="M10,0C4.5,0,0,4.5,0,10s4.5,10,10,10s10-4.5,10-10S15.5,0,10,0z M10,19.3c-5.1,0-9.3-4.2-9.3-9.3
			c0-5.1,4.2-9.3,9.3-9.3c5.1,0,9.3,4.2,9.3,9.3C19.3,15.1,15.1,19.3,10,19.3z"/>
		<path fill="#FFFFFF" d="M10,2C9.8,2,9.7,2.1,9.7,2.3V10h-5c-0.2,0-0.3,0.1-0.3,0.3c0,0.2,0.1,0.3,0.3,0.3H10c0.2,0,0.3-0.1,0.3-0.3
			v-8C10.3,2.1,10.2,2,10,2z"/>
	</symbol>

	<symbol id="arrow-up" viewBox="0 0 7.4 14.5">
		<path fill="#6FCF97" d="M4,0.1C3.8,0,3.5,0,3.3,0.1L0.1,3.3C0,3.5,0,3.8,0.1,4c0.2,0.2,0.5,0.2,0.7,0l2.8-2.8L6.5,4
			C6.7,4.2,7,4.2,7.2,4c0.2-0.2,0.2-0.5,0-0.7L4,0.1z M4.2,14.5v-14h-1v14H4.2z"/>
	</symbol>

	<symbol id="planets1" viewBox="0 0 291.1 285.5">
		<circle fill="none" stroke="#FFFFFF" cx="142.7" cy="142.7" r="77.1"/>
		<circle fill="none" stroke="#5F5F5F" cx="142.7" cy="142.7" r="142.2"/>
		<circle fill="#FFCF35" cx="196" cy="116.4" r="50.3"/>
		<linearGradient id="SVGID_1_" gradientUnits="userSpaceOnUse" x1="166.0541" y1="730.7741" x2="195.9451" y2="642.6734" gradientTransform="matrix(-0.2726 0.9621 0.9621 0.2726 -414.217 -245.0194)">
			<stop  offset="0" style="stop-color:#FFCF35;stop-opacity:0"/>
			<stop  offset="1" style="stop-color:#FF8A35"/>
		</linearGradient>
		<circle fill="url(#SVGID_1_)" cx="196" cy="116.4" r="50.3"/>
		<circle fill="#FFCF35" cx="274.3" cy="86.3" r="16.8"/>
		<linearGradient id="SVGID_2_" gradientUnits="userSpaceOnUse" x1="254.5726" y1="730.8121" x2="264.5366" y2="701.4452" gradientTransform="matrix(-0.2726 0.9621 0.9621 0.2726 -343.5555 -358.7122)">
			<stop  offset="0" style="stop-color:#FFCF35;stop-opacity:0"/>
			<stop  offset="1" style="stop-color:#FF8A35"/>
		</linearGradient>
		<circle fill="url(#SVGID_2_)" cx="274.3" cy="86.3" r="16.8"/>
	</symbol>

	<symbol id="logo-footer" viewBox="0 0 327.5 54">	
		<path fill="#FFFFFF" d="M81.9,26.2c1.2,0.3,2.1,0.8,2.8,1.6c0.7,0.8,1,1.8,1,3c0,1.6-0.6,2.8-1.7,3.6c-1.1,0.8-2.8,1.2-5.1,1.2h-8.4
			V17.3h7.9c2,0,3.6,0.4,4.7,1.2c1.1,0.8,1.7,2,1.7,3.5c0,1-0.3,1.9-0.8,2.6C83.4,25.3,82.8,25.8,81.9,26.2z M72.3,18.9v6.6h5.8
			c1.5,0,2.6-0.3,3.4-0.8c0.8-0.6,1.2-1.4,1.2-2.5s-0.4-1.9-1.2-2.4c-0.8-0.6-1.9-0.9-3.4-0.9H72.3z M78.8,34c1.6,0,2.9-0.3,3.7-0.8
			c0.8-0.6,1.2-1.4,1.2-2.6c0-2.3-1.6-3.4-4.9-3.4h-6.4V34H78.8z M89.6,21.9h1.8v13.7h-1.8V21.9z M90.6,18.9c-0.4,0-0.7-0.1-1-0.4
			c-0.3-0.3-0.4-0.6-0.4-0.9c0-0.3,0.1-0.6,0.4-0.9c0.3-0.3,0.6-0.4,1-0.4c0.4,0,0.7,0.1,1,0.4c0.3,0.2,0.4,0.5,0.4,0.9
			c0,0.4-0.1,0.7-0.4,1S91,18.9,90.6,18.9z M103.8,34.7c-0.3,0.3-0.8,0.6-1.3,0.7c-0.5,0.2-1,0.2-1.6,0.2c-1.3,0-2.3-0.3-3-1
			c-0.7-0.7-1-1.7-1-2.9v-8.3h-2.4v-1.6h2.4v-3h1.8v3h4.2v1.6h-4.2v8.2c0,0.8,0.2,1.4,0.6,1.9c0.4,0.4,1,0.6,1.8,0.6
			c0.4,0,0.7-0.1,1.1-0.2c0.4-0.1,0.7-0.3,0.9-0.5L103.8,34.7z M112.4,35.7c-1.4,0-2.6-0.3-3.6-0.9c-1.1-0.6-1.9-1.4-2.5-2.5
			c-0.6-1.1-0.9-2.3-0.9-3.6c0-1.3,0.3-2.5,0.9-3.6c0.6-1.1,1.4-1.9,2.5-2.5c1.1-0.6,2.3-0.9,3.6-0.9c1.2,0,2.2,0.2,3.1,0.7
			c0.9,0.5,1.7,1.1,2.2,2l-1.4,0.9c-0.5-0.7-1-1.2-1.7-1.5c-0.7-0.3-1.4-0.5-2.3-0.5c-1,0-1.9,0.2-2.7,0.7c-0.8,0.4-1.4,1.1-1.8,1.9
			c-0.4,0.8-0.7,1.7-0.7,2.8c0,1.1,0.2,2,0.7,2.8c0.5,0.8,1.1,1.4,1.8,1.9c0.8,0.4,1.7,0.6,2.7,0.6c0.8,0,1.6-0.2,2.3-0.5
			s1.3-0.8,1.7-1.5l1.4,0.9c-0.5,0.9-1.3,1.6-2.2,2C114.6,35.5,113.5,35.7,112.4,35.7z M126.7,35.7c-1.3,0-2.5-0.3-3.6-0.9
			c-1.1-0.6-1.9-1.4-2.5-2.5c-0.6-1.1-0.9-2.3-0.9-3.6c0-1.3,0.3-2.5,0.9-3.6c0.6-1.1,1.4-1.9,2.5-2.5c1.1-0.6,2.2-0.9,3.6-0.9
			s2.5,0.3,3.6,0.9c1.1,0.6,1.9,1.4,2.5,2.5c0.6,1.1,0.9,2.3,0.9,3.6c0,1.3-0.3,2.5-0.9,3.6c-0.6,1.1-1.4,1.9-2.5,2.5
			C129.2,35.4,128,35.7,126.7,35.7z M126.7,34c1,0,1.8-0.2,2.6-0.6c0.8-0.5,1.4-1.1,1.8-1.9c0.4-0.8,0.7-1.7,0.7-2.8
			c0-1-0.2-2-0.7-2.8c-0.4-0.8-1-1.4-1.8-1.9c-0.8-0.5-1.6-0.7-2.6-0.7c-1,0-1.8,0.2-2.6,0.7c-0.8,0.4-1.4,1.1-1.8,1.9
			c-0.4,0.8-0.7,1.7-0.7,2.8c0,1,0.2,2,0.7,2.8c0.5,0.8,1.1,1.4,1.8,1.9C124.9,33.8,125.7,34,126.7,34z M137.4,21.9h1.8v13.7h-1.8
			V21.9z M138.4,18.9c-0.4,0-0.7-0.1-1-0.4c-0.3-0.3-0.4-0.6-0.4-0.9c0-0.3,0.1-0.6,0.4-0.9c0.3-0.3,0.6-0.4,1-0.4
			c0.4,0,0.7,0.1,1,0.4c0.3,0.2,0.4,0.5,0.4,0.9c0,0.4-0.1,0.7-0.4,1C139.1,18.8,138.7,18.9,138.4,18.9z M151.4,21.8
			c1.7,0,3.1,0.5,4.1,1.5c1,1,1.5,2.4,1.5,4.3v7.9h-1.8v-7.7c0-1.4-0.4-2.5-1.1-3.3c-0.7-0.7-1.7-1.1-3-1.1c-1.5,0-2.6,0.4-3.5,1.3
			c-0.8,0.9-1.3,2.1-1.3,3.6v7.2h-1.8V21.9h1.8v2.5c0.5-0.8,1.2-1.5,2.1-1.9C149.2,22,150.2,21.8,151.4,21.8z M169.2,17.3h1.9v18.2
			h-1.9V17.3z M183.6,21.8c1.7,0,3.1,0.5,4.1,1.5c1,1,1.5,2.4,1.5,4.3v7.9h-1.8v-7.7c0-1.4-0.4-2.5-1.1-3.3c-0.7-0.7-1.7-1.1-3-1.1
			c-1.5,0-2.6,0.4-3.5,1.3c-0.8,0.9-1.3,2.1-1.3,3.6v7.2h-1.8V21.9h1.8v2.5c0.5-0.8,1.2-1.5,2.1-1.9C181.4,22,182.4,21.8,183.6,21.8z
			M205.5,21.9l-6.1,13.7h-1.9l-6.1-13.7h1.9l5.1,11.6l5.2-11.6H205.5z M219.6,29.3h-11.4c0.1,1.4,0.6,2.6,1.6,3.5
			c1,0.9,2.2,1.3,3.7,1.3c0.8,0,1.6-0.1,2.3-0.4c0.7-0.3,1.3-0.8,1.8-1.4l1,1.2c-0.6,0.7-1.4,1.3-2.3,1.7c-0.9,0.4-1.9,0.6-3,0.6
			c-1.4,0-2.7-0.3-3.7-0.9c-1.1-0.6-1.9-1.4-2.5-2.5c-0.6-1.1-0.9-2.3-0.9-3.6c0-1.3,0.3-2.5,0.9-3.6c0.6-1.1,1.4-1.9,2.4-2.5
			c1-0.6,2.2-0.9,3.4-0.9s2.4,0.3,3.4,0.9c1,0.6,1.8,1.4,2.4,2.5c0.6,1,0.9,2.2,0.9,3.6L219.6,29.3z M213,23.4c-1.3,0-2.4,0.4-3.3,1.3
			c-0.9,0.8-1.4,1.9-1.5,3.3h9.7c-0.1-1.4-0.6-2.4-1.5-3.3C215.5,23.8,214.3,23.4,213,23.4z M227.1,35.7c-1.1,0-2.2-0.2-3.2-0.5
			c-1-0.3-1.8-0.7-2.4-1.2l0.8-1.5c0.6,0.5,1.3,0.8,2.2,1.1c0.9,0.3,1.8,0.4,2.7,0.4c1.2,0,2.2-0.2,2.8-0.6c0.6-0.4,0.9-1,0.9-1.7
			c0-0.5-0.2-0.9-0.5-1.2c-0.3-0.3-0.7-0.5-1.2-0.6c-0.5-0.2-1.2-0.3-2-0.4c-1.1-0.2-2-0.4-2.7-0.6c-0.7-0.2-1.3-0.6-1.7-1.1
			c-0.5-0.5-0.7-1.2-0.7-2.2c0-1.1,0.5-2.1,1.4-2.8c1-0.7,2.3-1.1,4-1.1c0.9,0,1.8,0.1,2.7,0.4c0.9,0.2,1.6,0.5,2.2,0.9l-0.8,1.5
			c-1.1-0.8-2.5-1.2-4-1.2c-1.2,0-2.1,0.2-2.7,0.6c-0.6,0.4-0.9,1-0.9,1.6c0,0.5,0.2,0.9,0.5,1.2c0.3,0.3,0.8,0.5,1.3,0.7
			c0.5,0.1,1.2,0.3,2.1,0.4c1.1,0.2,2,0.4,2.6,0.6c0.7,0.2,1.2,0.6,1.7,1.1c0.5,0.5,0.7,1.2,0.7,2.1c0,1.2-0.5,2.1-1.5,2.9
			C230.2,35.3,228.8,35.7,227.1,35.7z M243.3,34.7c-0.3,0.3-0.8,0.6-1.3,0.7c-0.5,0.2-1,0.2-1.6,0.2c-1.3,0-2.3-0.3-3-1
			c-0.7-0.7-1-1.7-1-2.9v-8.3H234v-1.6h2.4v-3h1.8v3h4.2v1.6h-4.2v8.2c0,0.8,0.2,1.4,0.6,1.9c0.4,0.4,1,0.6,1.8,0.6
			c0.4,0,0.7-0.1,1.1-0.2c0.4-0.1,0.7-0.3,0.9-0.5L243.3,34.7z M263.7,21.8c1.7,0,3.1,0.5,4,1.5c1,1,1.5,2.4,1.5,4.4v7.9h-1.8v-7.7
			c0-1.4-0.3-2.5-1-3.3c-0.7-0.7-1.6-1.1-2.9-1.1c-1.4,0-2.5,0.4-3.4,1.3c-0.8,0.9-1.2,2.1-1.2,3.6v7.2h-1.8v-7.7c0-1.4-0.3-2.5-1-3.3
			c-0.7-0.7-1.6-1.1-2.9-1.1c-1.4,0-2.5,0.4-3.4,1.3c-0.8,0.9-1.2,2.1-1.2,3.6v7.2h-1.8V21.9h1.8v2.5c0.5-0.8,1.2-1.5,2-1.9
			c0.9-0.5,1.9-0.7,3-0.7c1.1,0,2.1,0.2,3,0.7c0.8,0.5,1.5,1.2,1.9,2.2c0.5-0.9,1.2-1.6,2.2-2.1C261.4,22,262.5,21.8,263.7,21.8z
			M286.2,29.3h-11.4c0.1,1.4,0.6,2.6,1.6,3.5c1,0.9,2.2,1.3,3.7,1.3c0.8,0,1.6-0.1,2.3-0.4c0.7-0.3,1.3-0.8,1.8-1.4l1,1.2
			c-0.6,0.7-1.4,1.3-2.3,1.7c-0.9,0.4-1.9,0.6-3,0.6c-1.4,0-2.7-0.3-3.7-0.9c-1.1-0.6-1.9-1.4-2.5-2.5c-0.6-1.1-0.9-2.3-0.9-3.6
			c0-1.3,0.3-2.5,0.9-3.6c0.6-1.1,1.4-1.9,2.4-2.5c1-0.6,2.2-0.9,3.4-0.9c1.3,0,2.4,0.3,3.4,0.9c1,0.6,1.8,1.4,2.4,2.5
			c0.6,1,0.9,2.2,0.9,3.6L286.2,29.3z M279.6,23.4c-1.3,0-2.4,0.4-3.3,1.3c-0.9,0.8-1.4,1.9-1.5,3.3h9.7c-0.1-1.4-0.6-2.4-1.5-3.3
			C282.1,23.8,280.9,23.4,279.6,23.4z M297,21.8c1.7,0,3.1,0.5,4.1,1.5c1,1,1.5,2.4,1.5,4.3v7.9h-1.8v-7.7c0-1.4-0.4-2.5-1.1-3.3
			c-0.7-0.7-1.7-1.1-3-1.1c-1.5,0-2.6,0.4-3.5,1.3c-0.8,0.9-1.3,2.1-1.3,3.6v7.2H290V21.9h1.8v2.5c0.5-0.8,1.2-1.5,2.1-1.9
			C294.7,22,295.8,21.8,297,21.8z M314.8,34.7c-0.3,0.3-0.8,0.6-1.3,0.7c-0.5,0.2-1,0.2-1.6,0.2c-1.3,0-2.3-0.3-3-1
			c-0.7-0.7-1-1.7-1-2.9v-8.3h-2.4v-1.6h2.4v-3h1.8v3h4.2v1.6h-4.2v8.2c0,0.8,0.2,1.4,0.6,1.9c0.4,0.4,1,0.6,1.8,0.6
			c0.4,0,0.7-0.1,1.1-0.2c0.4-0.1,0.7-0.3,0.9-0.5L314.8,34.7z M321.8,35.7c-1.1,0-2.2-0.2-3.2-0.5c-1-0.3-1.8-0.7-2.4-1.2l0.8-1.5
			c0.6,0.5,1.3,0.8,2.2,1.1c0.9,0.3,1.8,0.4,2.7,0.4c1.2,0,2.2-0.2,2.8-0.6c0.6-0.4,0.9-1,0.9-1.7c0-0.5-0.2-0.9-0.5-1.2
			c-0.3-0.3-0.7-0.5-1.2-0.6c-0.5-0.2-1.2-0.3-2-0.4c-1.1-0.2-2-0.4-2.7-0.6c-0.7-0.2-1.3-0.6-1.7-1.1c-0.5-0.5-0.7-1.2-0.7-2.2
			c0-1.1,0.5-2.1,1.4-2.8c1-0.7,2.3-1.1,4-1.1c0.9,0,1.8,0.1,2.7,0.4c0.9,0.2,1.6,0.5,2.2,0.9l-0.8,1.5c-1.1-0.8-2.5-1.2-4-1.2
			c-1.2,0-2.1,0.2-2.7,0.6c-0.6,0.4-0.9,1-0.9,1.6c0,0.5,0.2,0.9,0.5,1.2c0.3,0.3,0.8,0.5,1.3,0.7c0.5,0.1,1.2,0.3,2.1,0.4
			c1.1,0.2,2,0.4,2.6,0.6c0.7,0.2,1.2,0.6,1.7,1.1c0.5,0.5,0.7,1.2,0.7,2.1c0,1.2-0.5,2.1-1.5,2.9C325,35.3,323.6,35.7,321.8,35.7z"/>
		<circle fill="none" stroke="#FFFFFF" cx="27" cy="27" r="14.2"/>
		<circle fill="none" stroke="#5F5F5F" cx="27" cy="27" r="26.5"/>
		<circle fill="#FFCF35" cx="19.3" cy="18.8" r="9.5"/>
		<linearGradient id="SVGID_1_" gradientUnits="userSpaceOnUse" x1="8.9772" y1="43.8775" x2="14.6313" y2="27.2127" gradientTransform="matrix(0.9998 -2.014113e-02 -2.014113e-02 -0.9998 8.1346 54.3906)">
			<stop  offset="0" style="stop-color:#FFCF35;stop-opacity:0"/>
			<stop  offset="1" style="stop-color:#FF8A35"/>
		</linearGradient>
		<circle fill="url(#SVGID_1_)" cx="19.3" cy="18.8" r="9.5"/>
		<circle fill="#FFCF35" cx="9.5" cy="6.3" r="3.2"/>
		<linearGradient id="SVGID_2_" gradientUnits="userSpaceOnUse" x1="1.1322" y1="50.6864" x2="3.0169" y2="45.1315" gradientTransform="matrix(0.9998 -2.014113e-02 -2.014113e-02 -0.9998 8.3844 54.1911)">
			<stop  offset="0" style="stop-color:#FFCF35;stop-opacity:0"/>
			<stop  offset="1" style="stop-color:#FF8A35"/>
		</linearGradient>
		<circle fill="url(#SVGID_2_)" cx="9.5" cy="6.3" r="3.2"/>
	</symbol>

	<symbol id="empty-image" viewBox="0 0 112.1 112.1">
		<g>
			<defs>
				<rect id="SVGID_1_" width="112.1" height="112.1"/>
			</defs>
			<clipPath id="SVGID_2_">
				<use xlink:href="#SVGID_1_"  overflow="visible"/>
			</clipPath>
			<g clip-path="url(#SVGID_2_)">
				<path fill="#5F5F5F" d="M90.4,77.9l-17-5.7c-0.4-0.1-0.8-0.2-1.3-0.2H40c-0.4,0-0.9,0.1-1.3,0.2l-17,5.7C8.7,82.3,0,94.4,0,108.1
					c0,2.2,1.8,4,4,4h104.1c2.2,0,4-1.8,4-4C112.1,94.4,103.3,82.3,90.4,77.9z"/>
				<path fill="#5F5F5F" d="M56,0C42.8,0,32,10.8,32,24v16c0,13.3,10.8,24,24,24c13.3,0,24-10.8,24-24V24C80.1,10.8,69.3,0,56,0z"/>
			</g>
		</g>
	</symbol>

	<symbol id="long-arrow" viewBox="0 0 14.7 22.3">
		<path fill="none" stroke="#0D101C" d="M7.3,0v22 M7.3,22l-6.9-7.8 M7.3,22l7.1-7.8"/>
	</symbol>

</svg>